{"items":[
    {
        "key": "ACTION_BEND",
        "value": "agachar-se"
    },
    {
        "key": "ACTION_FLAP",
        "value": "esvoaçar"
    },
    {
        "key": "ACTION_GOALS",
        "value": "tarefas"
    },
    {
        "key": "ACTION_GRAB",
        "value": "pegar"
    },
    {
        "key": "ACTION_HONK",
        "value": "grasnar"
    },
    {
        "key": "ACTION_MOVE",
        "value": "mover-se"
    },
    {
        "key": "ACTION_PAUSE",
        "value": "pausar"
    },
    {
        "key": "ACTION_RUN",
        "value": "correr"
    },
    {
        "key": "ACTION_ZOOM",
        "value": "!!!"
    },
    {
        "key": "ACTION_ZOOMIN",
        "value": "aproximar"
    },
    {
        "key": "ACTION_ZOOMOUT",
        "value": "afastar"
    },
    {
        "key": "CONTROLS_MULTIPLE",
        "value": "múltiplo"
    },
    {
        "key": "CONTROLS_TITLE",
        "value": "~~~ CONTROLES ~~~"
    },
    {
        "key": "CREDITS_ACKNOWLEDGEMENT",
        "value": "Este jogo foi criado nas terras do povo Wurundjeri da nação Kulin. Prestamos nosso respeito a seus Anciãos, anteriores e atuais. A soberania nunca foi cedida."
    },
    {
        "key": "CREDITS_AGOOSE",
        "value": "um Ganso"
    },
    {
        "key": "CREDITS_APPEARINGAS",
        "value": "no papel de"
    },
    {
        "key": "CREDITS_ART",
        "value": "arte e animação adicionais"
    },
    {
        "key": "CREDITS_AS",
        "value": "como"
    },
    {
        "key": "CREDITS_AUDIO",
        "value": "design de som"
    },
    {
        "key": "CREDITS_BY",
        "value": "por"
    },
    {
        "key": "CREDITS_CHARACTERS",
        "value": "o Jardineiro\r\na Comerciante\r\no Medroso\r\na Dona da loja de TV\r\no Vizinho organizado\r\na Vizinha desorganizada\r\na Dona do bar\r\no Marido da Dona do bar\r\na Entregadora\r\na Cliente do bar de amarelo\r\na Cliente do bar de azul\r\no Idoso"
    },
    {
        "key": "CREDITS_DEBUSSY",
        "value": "Dan Golding\r\n(adaptação dos “Préludes” de Debussy)"
    },
    {
        "key": "CREDITS_EXEC",
        "value": "produtores executivos"
    },
    {
        "key": "CREDITS_FONTTITLECURSIVE",
        "value": "<font=Learning Curve Bold SDF><size=150%>Learning Curve</size></font>"
    },
    {
        "key": "CREDITS_FONTS",
        "value": "fontes"
    },
    {
        "key": "CREDITS_FONTTITLEMONO",
        "value": "<font=SelectMono-Italic SDF><size=119%>Select Mono</size></font>"
    },
    {
        "key": "CREDITS_FONTTITLESANS",
        "value": "Transport New"
    },
    {
        "key": "CREDITS_INCOOPERATION",
        "value": "em colaboração com"
    },
    {
        "key": "CREDITS_INTRODUCING",
        "value": "e apresentando"
    },
    {
        "key": "CREDITS_JAPAN",
        "value": "panic japan"
    },
    {
        "key": "CREDITS_MARKETING",
        "value": "marketing"
    },
    {
        "key": "CREDITS_MUSIC",
        "value": "música"
    },
    {
        "key": "CREDITS_PLAYTEST",
        "value": "testadores"
    },
    {
        "key": "CREDITS_PORTING",
        "value": "suporte para consoles"
    },
    {
        "key": "CREDITS_PRODUCTION",
        "value": "produção"
    },
    {
        "key": "CREDITS_PROGRAMMING",
        "value": "programação adicional"
    },
    {
        "key": "CREDITS_QA",
        "value": "controle de qualidade"
    },
    {
        "key": "CREDITS_THANKS",
        "value": "agradecimentos especiais"
    },
    {
        "key": "CREDITS_THANKYOU",
        "value": "Muito obrigado por\r\njogar nosso video game.\r\n\r\n© 2019 House House"
    },
    {
        "key": "CREDITS_THEGOOSE",
        "value": "o Ganso"
    },
    {
        "key": "CREDITS_VIDEOGAME",
        "value": "um video game de"
    },
    {
        "key": "CREDITS_VOICEACTING",
        "value": "vozes"
    },
    {
        "key": "CREDITS_WEB",
        "value": "web"
    },
    {
        "key": "CREDITS_WITHASSISTANCE",
        "value": "com ajuda de"
    },
    {
        "key": "GOAL_BUYBACK2",
        "value": "fazer alguém de fora da rua principal recomprar suas próprias coisas"
    },
    {
        "key": "CREDITS_FONTMAKERCURSIVE",
        "value": "BV Fonts"
    },
    {
        "key": "CREDITS_FONTMAKERMONO",
        "value": "Michael McMaster"
    },
    {
        "key": "CREDITS_FONTMAKERSANS",
        "value": "K-Type\n(baseado no original “Transport”\n de Margaret Calvert e Jock Kinneir)"
    },
    {
        "key": "CREDITS_FMODTITLE",
        "value": "suporte de áudio"
    },
    {
        "key": "CREDITS_FMODNAME",
        "value": "FMOD Studio\n de Firelight Technologies Pty Ltd."
    },
    {
        "key": "DEMO_FIVE_MINUTES",
        "value": "cinco minutos restantes"
    },
    {
        "key": "DEMO_SECONDS_LEFT",
        "value": "<seconds> segundos restantes"
    },
    {
        "key": "DEMO_THANK_YOU",
        "value": "Obrigado por jogar nosso video game!\r\nEle será lançado em 2019.\r\n\r\nPara receber atualizações, cadastre-se na lista de endereços em\r\n<font=\"TransportNew-Medium SDF\"><size=+1.5><line-height=100%>goose.game</size></font></line-height>"
    },
    {
        "key": "CHECKLIST",
        "value": "!!!"
    },
    {
        "key": "CONTROLS",
        "value": "!!!"
    },
    {
        "key": "NEWTODO",
        "value": "novo item da\r\nlista de tarefas!!"
    },
    {
        "key": "NEWTODO_EXTRAPAGES",
        "value": "novas páginas da\r\nlista de tarefas!!"
    },
    {
        "key": "NEWTODO_PAGE",
        "value": "nova página da\r\nlista de tarefas!!"
    },
    {
        "key": "TO_DO",
        "value": "tarefas:"
    },
    {
        "key": "GOAL_BAREFOOT",
        "value": "fazer o homem ficar descalço"
    },
    {
        "key": "GOAL_BELL",
        "value": "fazer o homem cuspir seu chá"
    },
    {
        "key": "GOAL_BREAKVASE",
        "value": "fazer alguém quebrar o vaso de luxo"
    },
    {
        "key": "GOAL_DRESSSTATUE",
        "value": "ajudar a mulher a vestir o busto"
    },
    {
        "key": "GOAL_PRUNE",
        "value": "fazer alguém podar a rosa de competição"
    },
    {
        "key": "GOAL_RIBBON",
        "value": "usar um laço"
    },
    {
        "key": "GOAL_STARTFIGHT",
        "value": "provocar uma briga entre os vizinhos"
    },
    {
        "key": "GOAL_WASHING",
        "value": "lavar a roupa"
    },
    {
        "key": "GOAL_WASHINGEXTRA",
        "value": "com: ~~um sutiã~~, ~~um par de meias~~, ~~uma pantufa~~, ~~um sabão em barra~~"
    },
    {
        "key": "GOAL_0MINUTES",
        "value": "menos de um minuto restante!"
    },
    {
        "key": "GOAL_100",
        "value": "riscar todas as tarefas da lista"
    },
    {
        "key": "GOAL_10MINUTES",
        "value": "dez minutos restantes"
    },
    {
        "key": "GOAL_1MINUTES",
        "value": "um minuto restante"
    },
    {
        "key": "GOAL_2MINUTES",
        "value": "dois minutos restantes"
    },
    {
        "key": "GOAL_3MINUTES",
        "value": "três minutos restantes"
    },
    {
        "key": "GOAL_4MINUTES",
        "value": "quatro minutos restantes"
    },
    {
        "key": "GOAL_5MINUTES",
        "value": "cinco minutos restantes"
    },
    {
        "key": "GOAL_6MINUTES",
        "value": "seis minutos restantes"
    },
    {
        "key": "GOAL_7MINUTES",
        "value": "sete minutos restantes"
    },
    {
        "key": "GOAL_8MINUTES",
        "value": "oito minutos restantes"
    },
    {
        "key": "GOAL_9MINUTES",
        "value": "nove minutos restantes"
    },
    {
        "key": "GOAL_BOATBRIDGE",
        "value": "fazer o barco de brinquedo navegar por baixo de uma ponte"
    },
    {
        "key": "GOAL_BUST2",
        "value": "vestir o busto com coisas de fora dos quintais"
    },
    {
        "key": "GOAL_CABBAGE",
        "value": "piquenique com repolho"
    },
    {
        "key": "GOAL_CATCH",
        "value": "pegar um objeto quando o jogarem sobre a cerca"
    },
    {
        "key": "GOAL_FLOWERS",
        "value": "recolher as cinco flores"
    },
    {
        "key": "GOAL_FLOWERSEXTRA",
        "value": "na cesta perto do poço: ~~uma tulipa~~, ~~um lírio~~, ~~uma rosa~~, ~~uma margarida~~, ~~um crisântemo~~"
    },
    {
        "key": "GOAL_FOOTBALL",
        "value": "marcar um gol"
    },
    {
        "key": "GOAL_LOCKOUT",
        "value": "trancar o jardineiro para fora do jardim"
    },
    {
        "key": "GOAL_MAIL",
        "value": "enviar uma carta"
    },
    {
        "key": "GOAL_MYSTERY",
        "value": "<cspace=0.25>?????????????</cspace>"
    },
    {
        "key": "GOAL_OLDMANHAT",
        "value": "roubar a boina de lã do idoso"
    },
    {
        "key": "GOAL_PERFORMRIBBON",
        "value": "atuar no pub usando um laço"
    },
    {
        "key": "GOAL_PUDDLE",
        "value": "derrubar o menino na poça"
    },
    {
        "key": "GOAL_SCALES",
        "value": "fazer as balanças da loja soarem"
    },
    {
        "key": "GOAL_SPEEDYBACKYARDS",
        "value": "concluir as tarefas dos quintais antes que soem os sinos da igreja"
    },
    {
        "key": "GOAL_SPEEDYBACKYARDSEXTRA",
        "value": "~~quebrar o vaso~~, ~~vestir o busto~~, ~~cuspir chá~~, ~~usar laço~~, ~~homem descalço~~, ~~lavar a roupa~~, ~~podar a rosa~~"
    },
    {
        "key": "GOAL_SPEEDYGARDEN",
        "value": "concluir as tarefas do jardim antes que soem os sinos da igreja"
    },
    {
        "key": "GOAL_SPEEDYGARDENEXTRA",
        "value": "~~entrar~~, ~~molhá-lo~~, ~~roubar chaves~~, ~~chapéu de sol~~, ~~ancinho no lago~~, ~~piquenique~~, ~~martelada~~"
    },
    {
        "key": "GOAL_SPEEDYPUB",
        "value": "concluir as tarefas do pub antes que soem os sinos da igreja"
    },
    {
        "key": "GOAL_SPEEDYPUBEXTRA",
        "value": "~~entrar~~, ~~quebrar alvo~~, ~~pegar barco de brinquedo~~, ~~fazer idoso cair sentado~~, ~~pegar flor~~, ~~derrubar jarra de vidro~~, ~~pôr a mesa~~, ~~derrubar o balde~~"
    },
    {
        "key": "GOAL_SPEEDYSHOPS",
        "value": "concluir as tarefas da rua principal antes que soem os sinos da igreja"
    },
    {
        "key": "GOAL_SPEEDYSHOPSEXTRA",
        "value": "~~quebrar a vassoura~~, ~~prender em cabine telefônica~~, ~~óculos errados~~, ~~recomprar suas coisas~~, ~~aparecer na TV~~, ~~fazer compras~~, ~~prender na garagem~~"
    },
    {
        "key": "GOAL_THROWNGOOSE",
        "value": "ser jogado por cima da cerca"
    },
    {
        "key": "GOAL_TOOLATE",
        "value": "redefinir para tentar"
    },
    {
        "key": "GOAL_UMBRELLA",
        "value": "abrir um guarda-chuva dentro da loja de TV"
    },
    {
        "key": "GOAL_WIMPGARAGE",
        "value": "prender o menino na garagem"
    },
    {
        "key": "TO_DO_ASWELL",
        "value": "tarefas (também):"
    },
    {
        "key": "TO_DO_SPEEDY",
        "value": "tarefas (rápido!!):"
    },
    {
        "key": "UNUSED_FLOWERS",
        "value": "crisântemo\npapoula\ncravo\ngirassol"
    },
    {
        "key": "GOAL_FINALE",
        "value": "…e levá-lo de volta para casa"
    },
    {
        "key": "GOAL_MODELVILLAGE",
        "value": "entrar no vilarejo em miniatura"
    },
    {
        "key": "GOAL_STEALBELL",
        "value": "roubar o belo sino dourado em miniatura"
    },
    {
        "key": "GOAL_GARDEN",
        "value": "entrar no jardim"
    },
    {
        "key": "GOAL_HAMMERING",
        "value": "fazer o jardineiro martelar seu polegar"
    },
    {
        "key": "GOAL_HAT",
        "value": "fazer o jardineiro usar seu chapéu de sol"
    },
    {
        "key": "GOAL_KEYS",
        "value": "roubar as chaves do jardineiro"
    },
    {
        "key": "GOAL_PICNIC",
        "value": "fazer um piquenique"
    },
    {
        "key": "GOAL_PICNICEXTRA",
        "value": "levar à toalha do piquenique: ~~sanduíche~~, ~~maçã~~, ~~abóbora~~, ~~cenoura~~, ~~geleia~~, ~~garrafa térmica~~, ~~rádio~~, ~~cesta~~"
    },
    {
        "key": "GOAL_RAKE",
        "value": "ancinho no lago"
    },
    {
        "key": "GOAL_WET",
        "value": "molhar o jardineiro"
    },
    {
        "key": "GOAL_BOAT",
        "value": "pegar o barco de brinquedo"
    },
    {
        "key": "GOAL_BUCKET",
        "value": "derrubar um balde na cabeça do fortão"
    },
    {
        "key": "GOAL_FLOWER",
        "value": "ser premiado com uma flor"
    },
    {
        "key": "GOAL_INTOPUB",
        "value": "entrar no pub"
    },
    {
        "key": "GOAL_OLDMAN1",
        "value": "quebrar o alvo"
    },
    {
        "key": "GOAL_OLDMAN2",
        "value": "fazer o idoso cair sentado"
    },
    {
        "key": "GOAL_PINTGLASS",
        "value": "roubar uma jarra e derrubá-la no canal (no revision necessary)"
    },
    {
        "key": "GOAL_SETTABLE",
        "value": "arrumar a mesa"
    },
    {
        "key": "GOAL_SETTABLEEXTRA",
        "value": "~~faca~~, ~~garfo~~, ~~prato~~, ~~pimenta~~, ~~vela~~"
    },
    {
        "key": "GOAL_BROOM",
        "value": "quebrar a vassoura"
    },
    {
        "key": "GOAL_BUYBACK",
        "value": "fazer alguém recomprar suas próprias coisas"
    },
    {
        "key": "GOAL_GARAGE",
        "value": "prender a comerciante na garagem"
    },
    {
        "key": "GOAL_GETINSHOP",
        "value": "aparecer na TV"
    },
    {
        "key": "GOAL_PHONEBOOTH",
        "value": "prender o menino na cabine telefônica"
    },
    {
        "key": "GOAL_SHOPPING",
        "value": "fazer compras"
    },
    {
        "key": "GOAL_SHOPPINGEXTRA",
        "value": "colocar na cesta: ~~escova de dentes~~, ~~papel higiênico~~, ~~escova de cabelo~~, ~~enlatados~~, ~~produto de limpeza~~, ~~frutas e vegetais~~"
    },
    {
        "key": "GOAL_WALKIETALKIE",
        "value": "roubar um par de walkie-talkies"
    },
    {
        "key": "GOAL_WRONGGLASSES",
        "value": "fazer o menino usar os óculos errados"
    },
    {
        "key": "BACK",
        "value": "voltar"
    },
    {
        "key": "BY_HOUSE_HOUSE",
        "value": "de House House"
    },
    {
        "key": "GAME_TITLE",
        "value": "Jogo do Ganso\r\nsem título"
    },
    {
        "key": "LOADING",
        "value": "• carregando •"
    },
    {
        "key": "PRESS_TO_HONK",
        "value": "• pressione <honkButton> para grasnar •"
    },
    {
        "key": "TITLE_AREYOUSURE",
        "value": "Tem certeza de que deseja sair?"
    },
    {
        "key": "TITLE_BEGIN",
        "value": "Iniciar"
    },
    {
        "key": "TITLE_CREDITS",
        "value": "Créditos"
    },
    {
        "key": "TITLE_NO",
        "value": "Não"
    },
    {
        "key": "TITLE_OPTIONS",
        "value": "Opções"
    },
    {
        "key": "TITLE_QUIT",
        "value": "Sair"
    },
    {
        "key": "TITLE_SUBTITLE",
        "value": "de House House"
    },
    {
        "key": "TITLE_TITLE",
        "value": "Untitled\nGoose Game"
    },
    {
        "key": "TITLE_YES",
        "value": "Sim"
    },
    {
        "key": "NO",
        "value": "Não"
    },
    {
        "key": "OPTIONS",
        "value": "Opções"
    },
    {
        "key": "PAUSED",
        "value": "Pausado"
    },
    {
        "key": "QUIT",
        "value": "Sair"
    },
    {
        "key": "QUIT_SUBTITLE",
        "value": "Tem certeza de que\r\ndeseja sair? Seu\r\nprogresso foi salvo."
    },
    {
        "key": "QUIT_TITLE",
        "value": "AGUARDAR"
    },
    {
        "key": "RESET",
        "value": "Redefinir"
    },
    {
        "key": "RESET_SUBTITLE",
        "value": "Sua bagunça será\r\narrumada, mas seu\r\nprogresso foi salvo."
    },
    {
        "key": "RESET_TITLE",
        "value": "REDEFINIR?"
    },
    {
        "key": "RESUME",
        "value": "Retomar"
    },
    {
        "key": "YES",
        "value": "Sim"
    },
    {
        "key": "REBIND_CLEAR",
        "value": "<size=120%>limpar - </size><tertiaryButton>"
    },
    {
        "key": "REBIND_CONTROLLER_MISSING_2",
        "value": "!!!"
    },
    {
        "key": "REBIND_DOWN",
        "value": "para baixo"
    },
    {
        "key": "REBIND_DPAD",
        "value": "direcional"
    },
    {
        "key": "REBIND_FACE_BUTTONS",
        "value": "!!!"
    },
    {
        "key": "REBIND_INPUT_MISSING_2",
        "value": "!!!"
    },
    {
        "key": "REBIND_KEYBOARD_TITLE",
        "value": "~~~ CONFIGURAÇÃO DO TECLADO E MOUSE ~~~"
    },
    {
        "key": "REBIND_LEFT",
        "value": "esquerda"
    },
    {
        "key": "REBIND_LEFT_STICK",
        "value": "botão analógico\nda esquerda"
    },
    {
        "key": "REBIND_MISSING_BINDING",
        "value": "AVISO!!\r\nFALTAM ENTRADAS"
    },
    {
        "key": "REBIND_MISSING_CONTROLLER",
        "value": "AVISO!!\r\nCONTROLADOR NÃO ENCONTRADO"
    },
    {
        "key": "REBIND_MOUSE_MOVE",
        "value": "movimento do mouse"
    },
    {
        "key": "REBIND_MOVE_STICK",
        "value": "movimento"
    },
    {
        "key": "REBIND_PROMPT",
        "value": "[que botão?]"
    },
    {
        "key": "REBIND_RESET",
        "value": "[redefinir para padrão]"
    },
    {
        "key": "REBIND_RIGHT",
        "value": "direita"
    },
    {
        "key": "REBIND_RIGHT_STICK",
        "value": "botão analógico\nda direita"
    },
    {
        "key": "REBIND_SELECT",
        "value": "<size=120%>selecionar - </size><confirmButton>"
    },
    {
        "key": "REBIND_TITLE",
        "value": "~~~ CONFIGURAÇÃO DO CONTROLADOR ~~~"
    },
    {
        "key": "REBIND_UNMAPPED",
        "value": "???"
    },
    {
        "key": "REBIND_UP",
        "value": "para cima"
    },
    {
        "key": "SAVE_DONTERASE",
        "value": "Não\r\napagar"
    },
    {
        "key": "SAVE_EMPTY",
        "value": "Vazio"
    },
    {
        "key": "SAVE_ERASECONFIRM",
        "value": "Tem\ncerteza?"
    },
    {
        "key": "SAVE_ERASECONFIRMNO",
        "value": "Não"
    },
    {
        "key": "SAVE_ERASECONFIRMYES",
        "value": "Sim"
    },
    {
        "key": "SAVE_ERASESELECT",
        "value": "Apagar?"
    },
    {
        "key": "SAVE_ERASETEXT",
        "value": "Apagar\r\nsalvo"
    },
    {
        "key": "SAVE_MONTH1",
        "value": "Jan"
    },
    {
        "key": "SAVE_MONTH10",
        "value": "Out"
    },
    {
        "key": "SAVE_MONTH11",
        "value": "Nov"
    },
    {
        "key": "SAVE_MONTH12",
        "value": "Dez"
    },
    {
        "key": "SAVE_MONTH2",
        "value": "Fev"
    },
    {
        "key": "SAVE_MONTH3",
        "value": "Mar"
    },
    {
        "key": "SAVE_MONTH4",
        "value": "Abr"
    },
    {
        "key": "SAVE_MONTH5",
        "value": "Mai"
    },
    {
        "key": "SAVE_MONTH6",
        "value": "Jun"
    },
    {
        "key": "SAVE_MONTH7",
        "value": "Jul"
    },
    {
        "key": "SAVE_MONTH8",
        "value": "Ago"
    },
    {
        "key": "SAVE_MONTH9",
        "value": "Set"
    },
    {
        "key": "SAVE_SAVE1",
        "value": "Salvo 01"
    },
    {
        "key": "SAVE_SAVE2",
        "value": "Salvo 02"
    },
    {
        "key": "SAVE_SAVE3",
        "value": "Salvo 03"
    },
    {
        "key": "LANGUAGE_BRAZILIAN_PORTUGUESE",
        "value": "PORTUGUÊS BRASIL"
    },
    {
        "key": "LANGUAGE_ENGLISH",
        "value": "INGLÊS"
    },
    {
        "key": "LANGUAGE_FRENCH",
        "value": "FRANCÊS"
    },
    {
        "key": "LANGUAGE_GERMAN",
        "value": "ALEMÃO"
    },
    {
        "key": "LANGUAGE_ITALIAN",
        "value": "ITALIANO"
    },
    {
        "key": "LANGUAGE_JAPANESE",
        "value": "JAPONÊS"
    },
    {
        "key": "LANGUAGE_KOREAN",
        "value": "COREANO"
    },
    {
        "key": "LANGUAGE_POLISH",
        "value": "POLONÊS"
    },
    {
        "key": "LANGUAGE_RUSSIAN",
        "value": "RUSSO"
    },
    {
        "key": "LANGUAGE_SIMPLIFIED_CHINESE",
        "value": "CHINÊS"
    },
    {
        "key": "LANGUAGE_SPANISH",
        "value": "ESPANHOL"
    },
    {
        "key": "SETTING_BEND_TOGGLE",
        "value": "inclinar-se"
    },
    {
        "key": "SETTING_CURSIVE",
        "value": "cursiva"
    },
    {
        "key": "SETTING_FULLSCREEN",
        "value": "tela cheia"
    },
    {
        "key": "SETTING_LANGUAGE",
        "value": "idioma"
    },
    {
        "key": "SETTING_LEGIBLETEXT",
        "value": "texto lista de tarefas"
    },
    {
        "key": "SETTING_MUSIC",
        "value": "volume da música"
    },
    {
        "key": "SETTING_OFF",
        "value": "-- / OFF"
    },
    {
        "key": "SETTING_ON",
        "value": "ON / ---"
    },
    {
        "key": "SETTING_QUALITY",
        "value": "qualidade dos gráficos"
    },
    {
        "key": "SETTING_QUALITY1",
        "value": "MAIS RÁPIDO"
    },
    {
        "key": "SETTING_QUALITY2",
        "value": "INTERMEDIÁRIO"
    },
    {
        "key": "SETTING_QUALITY3",
        "value": "MAIS BONITO"
    },
    {
        "key": "SETTING_RESOLUTION",
        "value": "resolução"
    },
    {
        "key": "SETTING_RUN_TOGGLE",
        "value": "correr"
    },
    {
        "key": "SETTING_SANSSERIF",
        "value": "simples"
    },
    {
        "key": "SETTING_SFX",
        "value": "volume dos efeitos"
    },
    {
        "key": "SETTING_SPEEDRUN",
        "value": "temporizador speedrun"
    },
    {
        "key": "SETTING_VIBRATION_TOGGLE",
        "value": "vibração"
    },
    {
        "key": "SETTING_WINGS_TOGGLE",
        "value": "asas"
    },
    {
        "key": "SETTING_ZOOM_TOGGLE",
        "value": "zoom"
    },
    {
        "key": "SETTINGS_ADJUSTCONTROLLER",
        "value": "ajustar controlador ->"
    },
    {
        "key": "SETTINGS_ADJUSTCONTROLS",
        "value": "ajustar controles ->"
    },
    {
        "key": "SETTINGS_ADJUSTKEYBOARD",
        "value": "ajustar teclado e mouse ->"
    },
    {
        "key": "SETTINGS_HONK",
        "value": "volume da grasnada"
    },
    {
        "key": "SETTINGS_TITLE",
        "value": "~~~ OPÇÕES ~~~"
    },
    {
        "key": "SETTINGS_VIEW_CONTROLS",
        "value": "ver controles"
    },
    {
        "key": "SETTING_HOLD",
        "value": "<size=90%>MANTER PRESSIONADO</size>"
    },
    {
        "key": "SETTING_TOGGLE",
        "value": "ALTERNAR"
    },
    {
        "key": "TEACHING_100REWARD",
        "value": "parabéns - uma recompensa o aguarda em casa"
    },
    {
        "key": "TEACHING_BEND",
        "value": "manter pressionado <crouchButton> para se inclinar para frente"
    },
    {
        "key": "TEACHING_CONTROLS",
        "value": "pressionar <goalsButton> para ver os controles"
    },
    {
        "key": "TEACHING_CORNERING",
        "value": "você pode girar rapidamente se soltar <runButton>"
    },
    {
        "key": "TEACHING_GOALS",
        "value": "pressionar <goalsButton> para ver as tarefas e os controles"
    },
    {
        "key": "TEACHING_MOVEMOUSE",
        "value": "<mouseMoveButton> para se mover,\r\nclique duplo para correr"
    },
    {
        "key": "TEACHING_MOVESTICK",
        "value": "manter pressionado <runButton> para correr"
    },
    {
        "key": "TEACHING_PICKUPGROUND",
        "value": "abaixar-se para pegar coisas do chão\r\n(manter pressionado <crouchButton> e pressionar <useButton>)"
    },
    {
        "key": "TEACHING_USE",
        "value": "pressionar <useButton> para usar seu bico"
    },
    {
        "key": "TEACHING_WINGS",
        "value": "manter pressionado <flapButton> para bater suas asas"
    },
    {
        "key": "TEACHING_ZOOM",
        "value": "manter pressionado <zoomInButton> para aproximar\r\ne <zoomOutButton> para afastar"
    },
    {
        "key": "SETTING_SCREENMODE",
        "value": "modo de tela"
    },
    {
        "key": "SETTING_SCREEN1",
        "value": "tela cheia"
    },
    {
        "key": "SETTING_SCREEN2",
        "value": "sem bordas"
    },
    {
        "key": "SETTING_SCREEN3",
        "value": "em janela"
    },
    {
        "key": "TITLE_SPLASH1",
        "value": "apresenta"
    },
    {
        "key": "CREDITS_BY2",
        "value": "por"
    },
    {
        "key": "CREDITS_BY3",
        "value": "por"
    },
    {
        "key": "TO_DO_FINALLY",
        "value": "tarefas (finalmente)"
    },
    {
        "key": "TEACHING_CORNERINGKEYBOARD",
        "value": "você pode girar rapidamente se parar de correr"
    },
    {
        "key": "CREDITS_PANICSTAFF",
        "value": "equipe"
    },
    {
        "key": "EXHIBITION_WAIT",
        "value": "AGUARDAR"
    },
    {
        "key": "EXHIBITION_CONFIRM",
        "value": "Are you sure\nyou want to reset?"
    },
    {
        "key": "",
        "value": "!!!"
    },
    {
        "key": "",
        "value": "!!!"
    },
    {
        "key": "",
        "value": "!!!"
    },
    {
        "key": "",
        "value": "!!!"
    },
    {
        "key": "",
        "value": "!!!"
    },
    {
        "key": "",
        "value": "!!!"
    },
    {
        "key": "",
        "value": "!!!"
    },
    {
        "key": "",
        "value": "!!!"
    },
    {
        "key": "",
        "value": "!!!"
    },
    {
        "key": "",
        "value": "!!!"
    },
    {
        "key": "",
        "value": "!!!"
    },
    {
        "key": "",
        "value": "!!!"
    },
    {
        "key": "",
        "value": "!!!"
    },
    {
        "key": "",
        "value": "!!!"
    },
    {
        "key": "",
        "value": "!!!"
    },
    {
        "key": "",
        "value": "!!!"
    },
    {
        "key": "",
        "value": "!!!"
    },
    {
        "key": "",
        "value": "!!!"
    },
    {
        "key": "",
        "value": "!!!"
    },
    {
        "key": "",
        "value": "!!!"
    },
    {
        "key": "",
        "value": "!!!"
    },
    {
        "key": "",
        "value": "!!!"
    },
    {
        "key": "",
        "value": "!!!"
    },
    {
        "key": "",
        "value": "!!!"
    },
    {
        "key": "",
        "value": "!!!"
    },
    {
        "key": "",
        "value": "!!!"
    },
    {
        "key": "",
        "value": "!!!"
    },
    {
        "key": "",
        "value": "!!!"
    },
    {
        "key": "",
        "value": "!!!"
    },
    {
        "key": "",
        "value": "!!!"
    },
    {
        "key": "",
        "value": "!!!"
    },
    {
        "key": "",
        "value": "!!!"
    },
    {
        "key": "",
        "value": "!!!"
    },
    {
        "key": "",
        "value": "!!!"
    },
    {
        "key": "",
        "value": "!!!"
    },
    {
        "key": "",
        "value": "!!!"
    },
    {
        "key": "",
        "value": "!!!"
    },
    {
        "key": "",
        "value": "!!!"
    },
    {
        "key": "",
        "value": "!!!"
    },
    {
        "key": "",
        "value": "!!!"
    },
    {
        "key": "",
        "value": "!!!"
    },
    {
        "key": "",
        "value": "!!!"
    },
    {
        "key": "",
        "value": "!!!"
    },
    {
        "key": "",
        "value": "!!!"
    },
    {
        "key": "",
        "value": "!!!"
    },
    {
        "key": "",
        "value": "!!!"
    },
    {
        "key": "",
        "value": "!!!"
    },
    {
        "key": "",
        "value": "!!!"
    },
    {
        "key": "",
        "value": "!!!"
    },
    {
        "key": "",
        "value": "!!!"
    },
    {
        "key": "",
        "value": "!!!"
    },
    {
        "key": "",
        "value": "!!!"
    },
    {
        "key": "",
        "value": "!!!"
    },
    {
        "key": "",
        "value": "!!!"
    },
    {
        "key": "",
        "value": "!!!"
    },
    {
        "key": "",
        "value": "!!!"
    },
    {
        "key": "",
        "value": "!!!"
    },
    {
        "key": "",
        "value": "!!!"
    },
    {
        "key": "",
        "value": "!!!"
    },
    {
        "key": "",
        "value": "!!!"
    },
    {
        "key": "",
        "value": "!!!"
    },
    {
        "key": "",
        "value": "!!!"
    },
    {
        "key": "",
        "value": "!!!"
    },
    {
        "key": "",
        "value": "!!!"
    },
    {
        "key": "",
        "value": "!!!"
    },
    {
        "key": "",
        "value": "!!!"
    },
    {
        "key": "",
        "value": "!!!"
    },
    {
        "key": "",
        "value": "!!!"
    },
    {
        "key": "",
        "value": "!!!"
    },
    {
        "key": "",
        "value": "!!!"
    },
    {
        "key": "",
        "value": "!!!"
    },
    {
        "key": "",
        "value": "!!!"
    },
    {
        "key": "",
        "value": "!!!"
    },
    {
        "key": "",
        "value": "!!!"
    },
    {
        "key": "",
        "value": "!!!"
    },
    {
        "key": "",
        "value": "!!!"
    },
    {
        "key": "",
        "value": "!!!"
    },
    {
        "key": "",
        "value": "!!!"
    },
    {
        "key": "",
        "value": "!!!"
    },
    {
        "key": "",
        "value": "!!!"
    },
    {
        "key": "",
        "value": "!!!"
    },
    {
        "key": "",
        "value": "!!!"
    },
    {
        "key": "",
        "value": "!!!"
    },
    {
        "key": "",
        "value": "!!!"
    },
    {
        "key": "",
        "value": "!!!"
    },
    {
        "key": "",
        "value": "!!!"
    },
    {
        "key": "",
        "value": "!!!"
    },
    {
        "key": "",
        "value": "!!!"
    },
    {
        "key": "",
        "value": "!!!"
    },
    {
        "key": "",
        "value": "!!!"
    },
    {
        "key": "",
        "value": "!!!"
    },
    {
        "key": "",
        "value": "!!!"
    },
    {
        "key": "",
        "value": "!!!"
    },
    {
        "key": "",
        "value": "!!!"
    },
    {
        "key": "",
        "value": "!!!"
    },
    {
        "key": "",
        "value": "!!!"
    },
    {
        "key": "",
        "value": "!!!"
    },
    {
        "key": "",
        "value": "!!!"
    },
    {
        "key": "",
        "value": "!!!"
    },
    {
        "key": "",
        "value": "!!!"
    },
    {
        "key": "",
        "value": "!!!"
    },
    {
        "key": "",
        "value": "!!!"
    },
    {
        "key": "",
        "value": "!!!"
    },
    {
        "key": "",
        "value": "!!!"
    },
    {
        "key": "",
        "value": "!!!"
    },
    {
        "key": "",
        "value": "!!!"
    },
    {
        "key": "",
        "value": "!!!"
    },
    {
        "key": "",
        "value": "!!!"
    },
    {
        "key": "",
        "value": "!!!"
    },
    {
        "key": "",
        "value": "!!!"
    }
]
}