{"items":[
    {
        "key": "ACTION_BEND",
        "value": "s'accroupir"
    },
    {
        "key": "ACTION_FLAP",
        "value": "agiter ailes"
    },
    {
        "key": "ACTION_GOALS",
        "value": "tâches"
    },
    {
        "key": "ACTION_GRAB",
        "value": "prendre"
    },
    {
        "key": "ACTION_HONK",
        "value": "cacarder"
    },
    {
        "key": "ACTION_MOVE",
        "value": "bouger"
    },
    {
        "key": "ACTION_PAUSE",
        "value": "pause"
    },
    {
        "key": "ACTION_RUN",
        "value": "courir"
    },
    {
        "key": "ACTION_ZOOM",
        "value": "!!!"
    },
    {
        "key": "ACTION_ZOOMIN",
        "value": "zoomer"
    },
    {
        "key": "ACTION_ZOOMOUT",
        "value": "dézoomer"
    },
    {
        "key": "CONTROLS_MULTIPLE",
        "value": "multiple"
    },
    {
        "key": "CONTROLS_TITLE",
        "value": "~~~ COMMANDES ~~~"
    },
    {
        "key": "CREDITS_ACKNOWLEDGEMENT",
        "value": "Ce jeu a été créé sur les terres du peuple Wurundjeri de la nation Kulin. Nous présentons nos hommages à leurs Anciens, du passé comme du présent. La souveraineté n'a jamais été cédée."
    },
    {
        "key": "CREDITS_AGOOSE",
        "value": "une Oie\t<space=6em>"
    },
    {
        "key": "CREDITS_APPEARINGAS",
        "value": "rôles"
    },
    {
        "key": "CREDITS_ART",
        "value": "autres graphismes et animation"
    },
    {
        "key": "CREDITS_AS",
        "value": "dans le rôle de"
    },
    {
        "key": "CREDITS_AUDIO",
        "value": "conception sonore"
    },
    {
        "key": "CREDITS_BY",
        "value": "par"
    },
    {
        "key": "CREDITS_CHARACTERS",
        "value": "le Jardinier\r\nla Vendeuse\r\nle Trouillard\r\nla Propriétaire du magasin de TV\r\nle Voisin ordonné\r\nla Voisine désordonnée\r\nla Propriétaire du bar\r\nle Mari de la Propriétaire du bar\r\nla Livreuse\r\nla Cliente du bar en jaune\r\nla Cliente du bar en bleu\r\nle Vieil homme"
    },
    {
        "key": "CREDITS_DEBUSSY",
        "value": "Dan Golding\r\n(adaptation des « Préludes » de Debussy)"
    },
    {
        "key": "CREDITS_EXEC",
        "value": "producteurs exécutifs"
    },
    {
        "key": "CREDITS_FONTTITLECURSIVE",
        "value": "<font=Learning Curve Bold SDF><size=150%>Learning Curve</size></font>"
    },
    {
        "key": "CREDITS_FONTS",
        "value": "typographies"
    },
    {
        "key": "CREDITS_FONTTITLEMONO",
        "value": "<font=SelectMono-Italic SDF><size=119%>Select Mono</size></font>"
    },
    {
        "key": "CREDITS_FONTTITLESANS",
        "value": "Transport New"
    },
    {
        "key": "CREDITS_INCOOPERATION",
        "value": "en collaboration avec"
    },
    {
        "key": "CREDITS_INTRODUCING",
        "value": "et avec"
    },
    {
        "key": "CREDITS_JAPAN",
        "value": "panic japan"
    },
    {
        "key": "CREDITS_MARKETING",
        "value": "marketing"
    },
    {
        "key": "CREDITS_MUSIC",
        "value": "musique"
    },
    {
        "key": "CREDITS_PLAYTEST",
        "value": "testeurs"
    },
    {
        "key": "CREDITS_PORTING",
        "value": "support pour consoles de jeux"
    },
    {
        "key": "CREDITS_PRODUCTION",
        "value": "production"
    },
    {
        "key": "CREDITS_PROGRAMMING",
        "value": "programmation supplémentaire"
    },
    {
        "key": "CREDITS_QA",
        "value": "assurance qualité"
    },
    {
        "key": "CREDITS_THANKS",
        "value": "remerciements spéciaux à"
    },
    {
        "key": "CREDITS_THANKYOU",
        "value": "Merci beaucoup de\r\njouer à notre jeu vidéo.\r\n\r\n© 2019 House House"
    },
    {
        "key": "CREDITS_THEGOOSE",
        "value": "<space=8em>l'Oie"
    },
    {
        "key": "CREDITS_VIDEOGAME",
        "value": "un jeu vidéo de"
    },
    {
        "key": "CREDITS_VOICEACTING",
        "value": "voix"
    },
    {
        "key": "CREDITS_WEB",
        "value": "web"
    },
    {
        "key": "CREDITS_WITHASSISTANCE",
        "value": "avec l'aide de"
    },
    {
        "key": "GOAL_BUYBACK2",
        "value": "<space=-0.05>faire en sorte que quelqu'un en dehors de <space=-0.1>la rue principale rachète ses propres affaires"
    },
    {
        "key": "CREDITS_FONTMAKERCURSIVE",
        "value": "BV Fonts"
    },
    {
        "key": "CREDITS_FONTMAKERMONO",
        "value": "Michael McMaster"
    },
    {
        "key": "CREDITS_FONTMAKERSANS",
        "value": "K-Type\n(basé sur le « Transport »\n de Margaret Calvert et Jock Kinneir)"
    },
    {
        "key": "CREDITS_FMODTITLE",
        "value": "support audio"
    },
    {
        "key": "CREDITS_FMODNAME",
        "value": "FMOD Studio\r\nde Firelight Technologies Pty Ltd."
    },
    {
        "key": "DEMO_FIVE_MINUTES",
        "value": "il reste cinq minutes"
    },
    {
        "key": "DEMO_SECONDS_LEFT",
        "value": "il reste <seconds> secondes"
    },
    {
        "key": "DEMO_THANK_YOU",
        "value": "Merci de jouer à notre jeu vidéo.\r\nIl sortira en 2019.\r\n\r\nPour les mises à jour, inscrivez-vous à notre liste de diffusion\r\n<font=\"TransportNew-Medium SDF\"><size=+1.5><line-height=100%>goose.game</size></font></line-height>"
    },
    {
        "key": "CHECKLIST",
        "value": "!!!"
    },
    {
        "key": "CONTROLS",
        "value": "!!!"
    },
    {
        "key": "NEWTODO",
        "value": "nouvel élément de\r\nla liste de tâches !"
    },
    {
        "key": "NEWTODO_EXTRAPAGES",
        "value": "nouvelles pages de\r\nla liste de tâches !"
    },
    {
        "key": "NEWTODO_PAGE",
        "value": "nouvelle page de\r\nla liste de tâches !"
    },
    {
        "key": "TO_DO",
        "value": "tâches :"
    },
    {
        "key": "GOAL_BAREFOOT",
        "value": "faire en sorte que l'homme se déchausse"
    },
    {
        "key": "GOAL_BELL",
        "value": "faire en sorte que l'homme crache son thé"
    },
    {
        "key": "GOAL_BREAKVASE",
        "value": "faire en sorte que quelqu'un casse le vase précieux"
    },
    {
        "key": "GOAL_DRESSSTATUE",
        "value": "aider la femme à habiller le buste"
    },
    {
        "key": "GOAL_PRUNE",
        "value": "faire en sorte que quelqu'un taille le beau rosier"
    },
    {
        "key": "GOAL_RIBBON",
        "value": "se mettre un ruban"
    },
    {
        "key": "GOAL_STARTFIGHT",
        "value": "déclencher une dispute entre voisins"
    },
    {
        "key": "GOAL_WASHING",
        "value": "laver le linge"
    },
    {
        "key": "GOAL_WASHINGEXTRA",
        "value": "utiliser ce qui suit : ~~un soutien-gorge~~, ~~une paire de chaussettes~~, ~~une pantoufle~~, ~~un morceau de savon~~"
    },
    {
        "key": "GOAL_0MINUTES",
        "value": "il reste moins d'une minute !"
    },
    {
        "key": "GOAL_100",
        "value": "tout barrer sur la liste des tâches"
    },
    {
        "key": "GOAL_10MINUTES",
        "value": "il reste dix minutes"
    },
    {
        "key": "GOAL_1MINUTES",
        "value": "il reste une minute"
    },
    {
        "key": "GOAL_2MINUTES",
        "value": "il reste deux minutes"
    },
    {
        "key": "GOAL_3MINUTES",
        "value": "il reste trois minutes"
    },
    {
        "key": "GOAL_4MINUTES",
        "value": "il reste quatre minutes"
    },
    {
        "key": "GOAL_5MINUTES",
        "value": "il reste cinq minutes"
    },
    {
        "key": "GOAL_6MINUTES",
        "value": "il reste six minutes"
    },
    {
        "key": "GOAL_7MINUTES",
        "value": "il reste sept minutes"
    },
    {
        "key": "GOAL_8MINUTES",
        "value": "il reste huit minutes"
    },
    {
        "key": "GOAL_9MINUTES",
        "value": "il reste neuf minutes"
    },
    {
        "key": "GOAL_BOATBRIDGE",
        "value": "faire flotter le petit bateau sous un pont"
    },
    {
        "key": "GOAL_BUST2",
        "value": "habiller le buste avec des objets trouvés hors des jardins arrière"
    },
    {
        "key": "GOAL_CABBAGE",
        "value": "pique-nique au chou"
    },
    {
        "key": "GOAL_CATCH",
        "value": "attraper un objet lancé par-dessus le grillage"
    },
    {
        "key": "GOAL_FLOWERS",
        "value": "récupérer les cinq fleurs"
    },
    {
        "key": "GOAL_FLOWERSEXTRA",
        "value": "dans le panier près du puits : ~~une tulipe~~, ~~un lys~~, ~~une rose~~, ~~une marguerite~~, ~~un chrysanthème~~"
    },
    {
        "key": "GOAL_FOOTBALL",
        "value": "marquer un but"
    },
    {
        "key": "GOAL_LOCKOUT",
        "value": "enfermer le jardinier hors du jardin"
    },
    {
        "key": "GOAL_MAIL",
        "value": "poster une lettre"
    },
    {
        "key": "GOAL_MYSTERY",
        "value": "<cspace=0.25>?????????????</cspace>"
    },
    {
        "key": "GOAL_OLDMANHAT",
        "value": "voler le bonnet de laine du vieil homme"
    },
    {
        "key": "GOAL_PERFORMRIBBON",
        "value": "faire un spectacle au pub en portant un ruban"
    },
    {
        "key": "GOAL_PUDDLE",
        "value": "faire trébucher le garçon dans la flaque"
    },
    {
        "key": "GOAL_SCALES",
        "value": "faire sonner les balances du magasin"
    },
    {
        "key": "GOAL_SPEEDYBACKYARDS",
        "value": "compléter la liste de tâches des jardins arrière avant que la cloche de l'église ne sonne"
    },
    {
        "key": "GOAL_SPEEDYBACKYARDSEXTRA",
        "value": "~~casser le vase~~, ~~habiller le buste~~, ~~faire cracher le thé~~, ~~porter un ruban~~, ~~homme déchaussé~~, ~~laver le linge~~, ~~tailler le rosier~~"
    },
    {
        "key": "GOAL_SPEEDYGARDEN",
        "value": "compléter la liste de tâches du jardin avant que la cloche de l'église ne sonne"
    },
    {
        "key": "GOAL_SPEEDYGARDENEXTRA",
        "value": "~~rentrer~~, ~~le mouiller~~, ~~voler les clés~~, ~~chapeau de soleil~~, ~~râteau dans le lac~~, ~~pique-nique~~, ~~coup de marteau~~"
    },
    {
        "key": "GOAL_SPEEDYPUB",
        "value": "compléter la liste de tâches du pub avant que la cloche de l'église ne sonne"
    },
    {
        "key": "GOAL_SPEEDYPUBEXTRA",
        "value": "~~rentrer~~, ~~casser la cible~~, ~~obtenir le petit bateau~~, ~~faire tomber le vieil homme~~, ~~récupérer les fleurs~~, ~~faire tomber la chope~~, ~~mettre la table~~, ~~faire tomber le seau~~"
    },
    {
        "key": "GOAL_SPEEDYSHOPS",
        "value": "compléter la liste de tâches de la rue principale avant que la cloche de l'église ne sonne"
    },
    {
        "key": "GOAL_SPEEDYSHOPSEXTRA",
        "value": "~~casser le balai~~, ~~enfermer dans la cabine téléphonique~~, ~~mauvaises lunettes~~, ~~racheter ses affaires~~, ~~passer à la télé~~, ~~faire des courses~~, ~~enfermer dans le garage~~"
    },
    {
        "key": "GOAL_THROWNGOOSE",
        "value": "se faire lancer par-dessus le grillage"
    },
    {
        "key": "GOAL_TOOLATE",
        "value": "redémarrer pour faire un essai"
    },
    {
        "key": "GOAL_UMBRELLA",
        "value": "ouvrir un parapluie dans le magasin de TV"
    },
    {
        "key": "GOAL_WIMPGARAGE",
        "value": "enfermer le garçon dans le garage"
    },
    {
        "key": "TO_DO_ASWELL",
        "value": "tâches (en plus) :"
    },
    {
        "key": "TO_DO_SPEEDY",
        "value": "tâches (rapides !) :"
    },
    {
        "key": "UNUSED_FLOWERS",
        "value": "chrysanthème\ncoquelicot\nœillet\ntournesol"
    },
    {
        "key": "GOAL_FINALE",
        "value": "… et la ramener jusqu'à la maison"
    },
    {
        "key": "GOAL_MODELVILLAGE",
        "value": "entrer dans le village miniature"
    },
    {
        "key": "GOAL_STEALBELL",
        "value": "voler la belle cloche dorée miniature"
    },
    {
        "key": "GOAL_GARDEN",
        "value": "entrer dans le jardin"
    },
    {
        "key": "GOAL_HAMMERING",
        "value": "faire en sorte que le jardinier se donne un coup de marteau sur le pouce"
    },
    {
        "key": "GOAL_HAT",
        "value": "faire en sorte que le jardinier porte son chapeau de soleil"
    },
    {
        "key": "GOAL_KEYS",
        "value": "voler les clés du jardinier"
    },
    {
        "key": "GOAL_PICNIC",
        "value": "faire un pique-nique"
    },
    {
        "key": "GOAL_PICNICEXTRA",
        "value": "apporter sur la nappe de pique-nique : ~~sandwich~~, ~~pomme~~, ~~citrouille~~, ~~carotte~~, ~~confiture~~, ~~thermos~~, ~~radio~~, ~~panier~~"
    },
    {
        "key": "GOAL_RAKE",
        "value": "râteau dans le lac"
    },
    {
        "key": "GOAL_WET",
        "value": "faire en sorte que le jardinier se mouille"
    },
    {
        "key": "GOAL_BOAT",
        "value": "obtenir le petit bateau"
    },
    {
        "key": "GOAL_BUCKET",
        "value": "faire tomber un seau sur la tête de l’homme costaud"
    },
    {
        "key": "GOAL_FLOWER",
        "value": "obtenir une fleur en récompense"
    },
    {
        "key": "GOAL_INTOPUB",
        "value": "entrer dans le pub"
    },
    {
        "key": "GOAL_OLDMAN1",
        "value": "casser la cible"
    },
    {
        "key": "GOAL_OLDMAN2",
        "value": "faire tomber le vieil homme sur les fesses"
    },
    {
        "key": "GOAL_PINTGLASS",
        "value": "voler une chope vide et la jeter dans le canal"
    },
    {
        "key": "GOAL_SETTABLE",
        "value": "mettre la table"
    },
    {
        "key": "GOAL_SETTABLEEXTRA",
        "value": "~~couteau~~, ~~fourchette~~, ~~assiette~~, ~~poivre~~, ~~bougie~~"
    },
    {
        "key": "GOAL_BROOM",
        "value": "casser le balai"
    },
    {
        "key": "GOAL_BUYBACK",
        "value": "faire en sorte que quelqu'un rachète ses propres affaires"
    },
    {
        "key": "GOAL_GARAGE",
        "value": "enfermer la vendeuse dans le garage"
    },
    {
        "key": "GOAL_GETINSHOP",
        "value": "passer à la télé"
    },
    {
        "key": "GOAL_PHONEBOOTH",
        "value": "enfermer le garçon dans la cabine téléphonique"
    },
    {
        "key": "GOAL_SHOPPING",
        "value": "faire des courses"
    },
    {
        "key": "GOAL_SHOPPINGEXTRA",
        "value": "mettre dans le panier : ~~brosse à dent~~, ~~papier toilette~~, ~~brosse~~, ~~conserves~~, ~~détergent~~, ~~fruits et légumes~~"
    },
    {
        "key": "GOAL_WALKIETALKIE",
        "value": "voler une paire de talkies-walkies"
    },
    {
        "key": "GOAL_WRONGGLASSES",
        "value": "faire en sorte que le garçon mette les mauvaises lunettes"
    },
    {
        "key": "BACK",
        "value": "retour"
    },
    {
        "key": "BY_HOUSE_HOUSE",
        "value": "par House House"
    },
    {
        "key": "GAME_TITLE",
        "value": "Jeu de l'Oie\r\nsans titre"
    },
    {
        "key": "LOADING",
        "value": "• chargement •"
    },
    {
        "key": "PRESS_TO_HONK",
        "value": "• appuyer sur <honkButton> pour cacarder •"
    },
    {
        "key": "TITLE_AREYOUSURE",
        "value": "Voulez-vous vraiment quitter ?"
    },
    {
        "key": "TITLE_BEGIN",
        "value": "Commencer"
    },
    {
        "key": "TITLE_CREDITS",
        "value": "Crédits"
    },
    {
        "key": "TITLE_NO",
        "value": "Non"
    },
    {
        "key": "TITLE_OPTIONS",
        "value": "Options"
    },
    {
        "key": "TITLE_QUIT",
        "value": "Quitter"
    },
    {
        "key": "TITLE_SUBTITLE",
        "value": "par House House"
    },
    {
        "key": "TITLE_TITLE",
        "value": "Untitled\nGoose Game"
    },
    {
        "key": "TITLE_YES",
        "value": "Oui"
    },
    {
        "key": "NO",
        "value": "Non"
    },
    {
        "key": "OPTIONS",
        "value": "<size=90%>Options</size>"
    },
    {
        "key": "PAUSED",
        "value": "En pause"
    },
    {
        "key": "QUIT",
        "value": "<size=90%>Quitter</size>"
    },
    {
        "key": "QUIT_SUBTITLE",
        "value": "<size=90%>Voulez-vous vraiment\r\nquitter ? Votre progression\r\na été sauvegardée.</size>"
    },
    {
        "key": "QUIT_TITLE",
        "value": "ATTENDRE"
    },
    {
        "key": "RESET",
        "value": "<size=88%>Redémarrer</size>"
    },
    {
        "key": "RESET_SUBTITLE",
        "value": "Tout le désordre que vous\navez causé disparaîtra,\nmais votre progression\na été sauvegardée."
    },
    {
        "key": "RESET_TITLE",
        "value": "REDÉMARRER ?"
    },
    {
        "key": "RESUME",
        "value": "<size=88%>Reprendre</size>"
    },
    {
        "key": "YES",
        "value": "Oui"
    },
    {
        "key": "REBIND_CLEAR",
        "value": "<size=110%>effacer - </size><tertiaryButton>"
    },
    {
        "key": "REBIND_CONTROLLER_MISSING_2",
        "value": "!!!"
    },
    {
        "key": "REBIND_DOWN",
        "value": "bas"
    },
    {
        "key": "REBIND_DPAD",
        "value": "d-pad"
    },
    {
        "key": "REBIND_FACE_BUTTONS",
        "value": "!!!"
    },
    {
        "key": "REBIND_INPUT_MISSING_2",
        "value": "!!!"
    },
    {
        "key": "REBIND_KEYBOARD_TITLE",
        "value": "~~~ CONFIGURATION CLAVIER ET SOURIS ~~~"
    },
    {
        "key": "REBIND_LEFT",
        "value": "gauche"
    },
    {
        "key": "REBIND_LEFT_STICK",
        "value": "stick gauche"
    },
    {
        "key": "REBIND_MISSING_BINDING",
        "value": "AVERTISSEMENT !\r\nSAISIES MANQUANTES"
    },
    {
        "key": "REBIND_MISSING_CONTROLLER",
        "value": "AVERTISSEMENT !\r\nMANETTE INTROUVABLE"
    },
    {
        "key": "REBIND_MOUSE_MOVE",
        "value": "déplacement de la souris"
    },
    {
        "key": "REBIND_MOVE_STICK",
        "value": "bouger"
    },
    {
        "key": "REBIND_PROMPT",
        "value": "[quel bouton ?]"
    },
    {
        "key": "REBIND_RESET",
        "value": "[restaurer paramètres par défaut]"
    },
    {
        "key": "REBIND_RIGHT",
        "value": "droite"
    },
    {
        "key": "REBIND_RIGHT_STICK",
        "value": "stick droit"
    },
    {
        "key": "REBIND_SELECT",
        "value": "<size=110%>sélectionner - </size><confirmButton>"
    },
    {
        "key": "REBIND_TITLE",
        "value": "~~~ CONFIGURATION DE LA MANETTE ~~~"
    },
    {
        "key": "REBIND_UNMAPPED",
        "value": "???"
    },
    {
        "key": "REBIND_UP",
        "value": "haut"
    },
    {
        "key": "SAVE_DONTERASE",
        "value": "Ne pas\r\neffacer"
    },
    {
        "key": "SAVE_EMPTY",
        "value": "Vide"
    },
    {
        "key": "SAVE_ERASECONFIRM",
        "value": "Êtes-vous\nsûr(e) ?"
    },
    {
        "key": "SAVE_ERASECONFIRMNO",
        "value": "Non"
    },
    {
        "key": "SAVE_ERASECONFIRMYES",
        "value": "Oui"
    },
    {
        "key": "SAVE_ERASESELECT",
        "value": "Effacer ?"
    },
    {
        "key": "SAVE_ERASETEXT",
        "value": "Effacer\r\nsauvegarde"
    },
    {
        "key": "SAVE_MONTH1",
        "value": "Jan"
    },
    {
        "key": "SAVE_MONTH10",
        "value": "Oct"
    },
    {
        "key": "SAVE_MONTH11",
        "value": "Nov"
    },
    {
        "key": "SAVE_MONTH12",
        "value": "Déc"
    },
    {
        "key": "SAVE_MONTH2",
        "value": "Fév"
    },
    {
        "key": "SAVE_MONTH3",
        "value": "Mar"
    },
    {
        "key": "SAVE_MONTH4",
        "value": "Avr"
    },
    {
        "key": "SAVE_MONTH5",
        "value": "Mai"
    },
    {
        "key": "SAVE_MONTH6",
        "value": "Jun"
    },
    {
        "key": "SAVE_MONTH7",
        "value": "Jul"
    },
    {
        "key": "SAVE_MONTH8",
        "value": "Aoû"
    },
    {
        "key": "SAVE_MONTH9",
        "value": "Sep"
    },
    {
        "key": "SAVE_SAVE1",
        "value": "Sauvegarde 01"
    },
    {
        "key": "SAVE_SAVE2",
        "value": "Sauvegarde 02"
    },
    {
        "key": "SAVE_SAVE3",
        "value": "Sauvegarde 03"
    },
    {
        "key": "LANGUAGE_BRAZILIAN_PORTUGUESE",
        "value": "PORTUGAIS BRÉSIL"
    },
    {
        "key": "LANGUAGE_ENGLISH",
        "value": "ANGLAIS"
    },
    {
        "key": "LANGUAGE_FRENCH",
        "value": "FRANÇAIS"
    },
    {
        "key": "LANGUAGE_GERMAN",
        "value": "ALLEMAND"
    },
    {
        "key": "LANGUAGE_ITALIAN",
        "value": "ITALIEN"
    },
    {
        "key": "LANGUAGE_JAPANESE",
        "value": "JAPONAIS"
    },
    {
        "key": "LANGUAGE_KOREAN",
        "value": "CORÉEN"
    },
    {
        "key": "LANGUAGE_POLISH",
        "value": "POLONAIS"
    },
    {
        "key": "LANGUAGE_RUSSIAN",
        "value": "RUSSE"
    },
    {
        "key": "LANGUAGE_SIMPLIFIED_CHINESE",
        "value": "CHINOIS"
    },
    {
        "key": "LANGUAGE_SPANISH",
        "value": "ESPAGNOL"
    },
    {
        "key": "SETTING_BEND_TOGGLE",
        "value": "incliner"
    },
    {
        "key": "SETTING_CURSIVE",
        "value": "cursive"
    },
    {
        "key": "SETTING_FULLSCREEN",
        "value": "plein écran"
    },
    {
        "key": "SETTING_LANGUAGE",
        "value": "langue"
    },
    {
        "key": "SETTING_LEGIBLETEXT",
        "value": "texte liste de tâches"
    },
    {
        "key": "SETTING_MUSIC",
        "value": "volume musique"
    },
    {
        "key": "SETTING_OFF",
        "value": "------ / ARRÊT"
    },
    {
        "key": "SETTING_ON",
        "value": "MARCHE / -----"
    },
    {
        "key": "SETTING_QUALITY",
        "value": "qualité graphismes"
    },
    {
        "key": "SETTING_QUALITY1",
        "value": "PLUS RAPIDE"
    },
    {
        "key": "SETTING_QUALITY2",
        "value": "INTERMÉDIAIRE"
    },
    {
        "key": "SETTING_QUALITY3",
        "value": "PLUS BEAU"
    },
    {
        "key": "SETTING_RESOLUTION",
        "value": "résolution"
    },
    {
        "key": "SETTING_RUN_TOGGLE",
        "value": "courir"
    },
    {
        "key": "SETTING_SANSSERIF",
        "value": "simple"
    },
    {
        "key": "SETTING_SFX",
        "value": "volume sfx"
    },
    {
        "key": "SETTING_SPEEDRUN",
        "value": "chronomètre speedrun"
    },
    {
        "key": "SETTING_VIBRATION_TOGGLE",
        "value": "vibration"
    },
    {
        "key": "SETTING_WINGS_TOGGLE",
        "value": "ailes"
    },
    {
        "key": "SETTING_ZOOM_TOGGLE",
        "value": "zoom"
    },
    {
        "key": "SETTINGS_ADJUSTCONTROLLER",
        "value": "paramétrer manette ->"
    },
    {
        "key": "SETTINGS_ADJUSTCONTROLS",
        "value": "paramétrer commandes ->"
    },
    {
        "key": "SETTINGS_ADJUSTKEYBOARD",
        "value": "paramétrer clavier et souris ->"
    },
    {
        "key": "SETTINGS_HONK",
        "value": "volume cacardement"
    },
    {
        "key": "SETTINGS_TITLE",
        "value": "~~~ OPTIONS ~~~"
    },
    {
        "key": "SETTINGS_VIEW_CONTROLS",
        "value": "voir les commandes"
    },
    {
        "key": "SETTING_HOLD",
        "value": "MAINTENIR"
    },
    {
        "key": "SETTING_TOGGLE",
        "value": "ALTERNER"
    },
    {
        "key": "TEACHING_100REWARD",
        "value": "félicitations, une récompense vous attend à la maison"
    },
    {
        "key": "TEACHING_BEND",
        "value": "maintenez <crouchButton> pour vous pencher en avant"
    },
    {
        "key": "TEACHING_CONTROLS",
        "value": "appuyez sur <goalsButton> pour voir les commandes"
    },
    {
        "key": "TEACHING_CORNERING",
        "value": "vous pouvez tourner rapidement en relâchant <runButton>"
    },
    {
        "key": "TEACHING_GOALS",
        "value": "appuyez sur <goalsButton> pour voir votre liste de tâches et les commandes"
    },
    {
        "key": "TEACHING_MOVEMOUSE",
        "value": "<mouseMoveButton> pour vous déplacer,\r\ndouble-cliquez pour courir"
    },
    {
        "key": "TEACHING_MOVESTICK",
        "value": "maintenez <runButton> pour courir"
    },
    {
        "key": "TEACHING_PICKUPGROUND",
        "value": "penchez-vous pour ramasser les objets au sol\r\n( maintenez <crouchButton> puis appuyez sur <useButton> )"
    },
    {
        "key": "TEACHING_USE",
        "value": "appuyez sur <useButton> pour utiliser votre bec"
    },
    {
        "key": "TEACHING_WINGS",
        "value": "maintenez <flapButton> pour agiter vos ailes"
    },
    {
        "key": "TEACHING_ZOOM",
        "value": "maintenez <zoomInButton> pour zoomer\r\net <zoomOutButton> pour dézoomer"
    },
    {
        "key": "SETTING_SCREENMODE",
        "value": "mode d'écran"
    },
    {
        "key": "SETTING_SCREEN1",
        "value": "plein écran"
    },
    {
        "key": "SETTING_SCREEN2",
        "value": "sans bordure"
    },
    {
        "key": "SETTING_SCREEN3",
        "value": "en fenêtre"
    },
    {
        "key": "TITLE_SPLASH1",
        "value": "présente"
    },
    {
        "key": "CREDITS_BY2",
        "value": "par"
    },
    {
        "key": "CREDITS_BY3",
        "value": "par"
    },
    {
        "key": "TO_DO_FINALLY",
        "value": "tâches (finales) :"
    },
    {
        "key": "TEACHING_CORNERINGKEYBOARD",
        "value": "vous pouvez tourner rapidement si vous arrêtez de courir"
    },
    {
        "key": "CREDITS_PANICSTAFF",
        "value": "équipe"
    },
    {
        "key": "EXHIBITION_WAIT",
        "value": "ATTENDRE"
    },
    {
        "key": "EXHIBITION_CONFIRM",
        "value": "Are you sure\nyou want to reset?"
    },
    {
        "key": "",
        "value": "!!!"
    },
    {
        "key": "",
        "value": "!!!"
    },
    {
        "key": "",
        "value": "!!!"
    },
    {
        "key": "",
        "value": "!!!"
    },
    {
        "key": "",
        "value": "!!!"
    },
    {
        "key": "",
        "value": "!!!"
    },
    {
        "key": "",
        "value": "!!!"
    },
    {
        "key": "",
        "value": "!!!"
    },
    {
        "key": "",
        "value": "!!!"
    },
    {
        "key": "",
        "value": "!!!"
    },
    {
        "key": "",
        "value": "!!!"
    },
    {
        "key": "",
        "value": "!!!"
    },
    {
        "key": "",
        "value": "!!!"
    },
    {
        "key": "",
        "value": "!!!"
    },
    {
        "key": "",
        "value": "!!!"
    },
    {
        "key": "",
        "value": "!!!"
    },
    {
        "key": "",
        "value": "!!!"
    },
    {
        "key": "",
        "value": "!!!"
    },
    {
        "key": "",
        "value": "!!!"
    },
    {
        "key": "",
        "value": "!!!"
    },
    {
        "key": "",
        "value": "!!!"
    },
    {
        "key": "",
        "value": "!!!"
    },
    {
        "key": "",
        "value": "!!!"
    },
    {
        "key": "",
        "value": "!!!"
    },
    {
        "key": "",
        "value": "!!!"
    },
    {
        "key": "",
        "value": "!!!"
    },
    {
        "key": "",
        "value": "!!!"
    },
    {
        "key": "",
        "value": "!!!"
    },
    {
        "key": "",
        "value": "!!!"
    },
    {
        "key": "",
        "value": "!!!"
    },
    {
        "key": "",
        "value": "!!!"
    }
]
}