{"items":[
    {
        "key": "ACTION_BEND",
        "value": "기어가기"
    },
    {
        "key": "ACTION_FLAP",
        "value": "날개퍼득이기"
    },
    {
        "key": "ACTION_GOALS",
        "value": "할 일 목록"
    },
    {
        "key": "ACTION_GRAB",
        "value": "집기"
    },
    {
        "key": "ACTION_HONK",
        "value": "꽥꽥울기"
    },
    {
        "key": "ACTION_MOVE",
        "value": "이동"
    },
    {
        "key": "ACTION_PAUSE",
        "value": "일시중지"
    },
    {
        "key": "ACTION_RUN",
        "value": "달리기"
    },
    {
        "key": "ACTION_ZOOM",
        "value": "!!!"
    },
    {
        "key": "ACTION_ZOOMIN",
        "value": "확대"
    },
    {
        "key": "ACTION_ZOOMOUT",
        "value": "축소"
    },
    {
        "key": "CONTROLS_MULTIPLE",
        "value": "다중작업"
    },
    {
        "key": "CONTROLS_TITLE",
        "value": "~~~ 컨트롤 ~~~"
    },
    {
        "key": "CREDITS_ACKNOWLEDGEMENT",
        "value": "이 게임은 쿨린 국가의 워런져리 부족의 땅에서 만들어졌습니다. 우리는 이 부족의 현인들과 그들의 과거 그리고 그들의 현재에 존경을 표합니다. 이 부족은 결코 자신들의 주권을 포기하지 않았습니다."
    },
    {
        "key": "CREDITS_AGOOSE",
        "value": "평범한 거위"
    },
    {
        "key": "CREDITS_APPEARINGAS",
        "value": "등장인물"
    },
    {
        "key": "CREDITS_ART",
        "value": "보조 아트 및 애니메이션"
    },
    {
        "key": "CREDITS_AS",
        "value": "   가 아닌"
    },
    {
        "key": "CREDITS_AUDIO",
        "value": "사운드 디자인"
    },
    {
        "key": "CREDITS_BY",
        "value": "-"
    },
    {
        "key": "CREDITS_CHARACTERS",
        "value": "정원사\r\n상점주인\r\n소년\r\nTV 대리점 사장\r\n단정한 이웃\r\n지저분한 이웃\r\n술집주인\r\n술집주인 남편\r\n배달원\r\n노란옷의 술집 손님\r\n파란옷의 술집 손님\r\n늙은남자"
    },
    {
        "key": "CREDITS_DEBUSSY",
        "value": "<font=\"TransportNew-Medium SDF\">Dan Golding\n(Debussy<font=\"NotoSansCJKkr-Bold SDF\"> 의 <font=\"TransportNew-Medium SDF\">“Préludes” <font=\"NotoSansCJKkr-Bold SDF\">에서 각색<font=\"TransportNew-Medium SDF\">)</font>"
    },
    {
        "key": "CREDITS_EXEC",
        "value": "책임 제작자"
    },
    {
        "key": "CREDITS_FONTTITLECURSIVE",
        "value": "<font=GamjaFlower-Regular SDF><size=150%>Gamja Flower</font>"
    },
    {
        "key": "CREDITS_FONTS",
        "value": "사용된 글꼴"
    },
    {
        "key": "CREDITS_FONTTITLEMONO",
        "value": "<font=NanumGothicCoding-Regular SDF><size=120%>Nanum Gothic</font>"
    },
    {
        "key": "CREDITS_FONTTITLESANS",
        "value": " "
    },
    {
        "key": "CREDITS_INCOOPERATION",
        "value": "협력사"
    },
    {
        "key": "CREDITS_INTRODUCING",
        "value": "그리고"
    },
    {
        "key": "CREDITS_JAPAN",
        "value": "Panic Japan"
    },
    {
        "key": "CREDITS_MARKETING",
        "value": "마케팅"
    },
    {
        "key": "CREDITS_MUSIC",
        "value": "음악"
    },
    {
        "key": "CREDITS_PLAYTEST",
        "value": "플레이 테스터"
    },
    {
        "key": "CREDITS_PORTING",
        "value": "게임 콘솔 지원"
    },
    {
        "key": "CREDITS_PRODUCTION",
        "value": "제작"
    },
    {
        "key": "CREDITS_PROGRAMMING",
        "value": "보조 프로그래밍"
    },
    {
        "key": "CREDITS_QA",
        "value": "품질 보증"
    },
    {
        "key": "CREDITS_THANKS",
        "value": "특별 감사"
    },
    {
        "key": "CREDITS_THANKYOU",
        "value": "저희 비디오 게임을 \n플레이해주셔서 고맙습니다.\n\n<font=\"TransportNew-Medium SDF\">© 2019 House House</font>"
    },
    {
        "key": "CREDITS_THEGOOSE",
        "value": "     특별한 거위"
    },
    {
        "key": "CREDITS_VIDEOGAME",
        "value": "비디오 게임 제작"
    },
    {
        "key": "CREDITS_VOICEACTING",
        "value": "성우"
    },
    {
        "key": "CREDITS_WEB",
        "value": "웹"
    },
    {
        "key": "CREDITS_WITHASSISTANCE",
        "value": "보조"
    },
    {
        "key": "GOAL_BUYBACK2",
        "value": "윗동네 이외 지역의 아무나 자신의 물건을 다시 사게끔 만들기"
    },
    {
        "key": "CREDITS_FONTMAKERCURSIVE",
        "value": "<font=\"TransportNew-Medium SDF\">YoonDesign Inc"
    },
    {
        "key": "CREDITS_FONTMAKERMONO",
        "value": "<font=\"TransportNew-Medium SDF\">Sandoll Communications"
    },
    {
        "key": "CREDITS_FONTMAKERSANS",
        "value": " "
    },
    {
        "key": "CREDITS_FMODTITLE",
        "value": "오디오 지원"
    },
    {
        "key": "CREDITS_FMODNAME",
        "value": "<font=\"TransportNew-Medium SDF\">FMOD Studio\nFirelight Technologies Pty Ltd.</font>"
    },
    {
        "key": "DEMO_FIVE_MINUTES",
        "value": "5분 남음"
    },
    {
        "key": "DEMO_SECONDS_LEFT",
        "value": "<seconds>초 남음"
    },
    {
        "key": "DEMO_THANK_YOU",
        "value": "저희 비디오 게임을 플레이해주셔서 고맙습니다.\r\n2019년 출시 예정.\r\n\r\n최신 소식을 보고 싶으면 메일링 리스트에 등록하세요.\r\n<font=\"TransportNew-Medium SDF\"><size=+1.5><line-height=100%>goose.game</size></font></line-height>"
    },
    {
        "key": "CHECKLIST",
        "value": "!!!"
    },
    {
        "key": "CONTROLS",
        "value": "!!!"
    },
    {
        "key": "NEWTODO",
        "value": "새로운\r\n할 일 항목!!"
    },
    {
        "key": "NEWTODO_EXTRAPAGES",
        "value": "새로운\r\n할 일 페이지!!"
    },
    {
        "key": "NEWTODO_PAGE",
        "value": "새로운\r\n할 일 페이지!!"
    },
    {
        "key": "TO_DO",
        "value": "할 일:"
    },
    {
        "key": "GOAL_BAREFOOT",
        "value": "남자의 신발 벗기기"
    },
    {
        "key": "GOAL_BELL",
        "value": "남자가 차를 뱉어내게 만들기"
    },
    {
        "key": "GOAL_BREAKVASE",
        "value": "누군가가 화려한 꽃병을 깨도록 만들기"
    },
    {
        "key": "GOAL_DRESSSTATUE",
        "value": "여자가 석상을 장식하도록 도와주기"
    },
    {
        "key": "GOAL_PRUNE",
        "value": "누군가가 특별 장미를 잘라내도록 만들기"
    },
    {
        "key": "GOAL_RIBBON",
        "value": "리본 장식 착용하기"
    },
    {
        "key": "GOAL_STARTFIGHT",
        "value": "이웃들 간 싸움 시작하기"
    },
    {
        "key": "GOAL_WASHING",
        "value": "세탁하기"
    },
    {
        "key": "GOAL_WASHINGEXTRA",
        "value": "필요한 물건: ~~브래지어~~, ~~양말 한 쌍~~, ~~슬리퍼~~, ~~비누 하나~~"
    },
    {
        "key": "GOAL_0MINUTES",
        "value": "남은 시간 1분 미만!"
    },
    {
        "key": "GOAL_100",
        "value": "할 일 목록 모두 지우기"
    },
    {
        "key": "GOAL_10MINUTES",
        "value": "10분 남음"
    },
    {
        "key": "GOAL_1MINUTES",
        "value": "1분 남음"
    },
    {
        "key": "GOAL_2MINUTES",
        "value": "2분 남음"
    },
    {
        "key": "GOAL_3MINUTES",
        "value": "3분 남음"
    },
    {
        "key": "GOAL_4MINUTES",
        "value": "4분 남음"
    },
    {
        "key": "GOAL_5MINUTES",
        "value": "5분 남음"
    },
    {
        "key": "GOAL_6MINUTES",
        "value": "6분 남음"
    },
    {
        "key": "GOAL_7MINUTES",
        "value": "7분 남음"
    },
    {
        "key": "GOAL_8MINUTES",
        "value": "8분 남음"
    },
    {
        "key": "GOAL_9MINUTES",
        "value": "9분 남음"
    },
    {
        "key": "GOAL_BOATBRIDGE",
        "value": "다리 아래로 장난감 배 띄우기"
    },
    {
        "key": "GOAL_BUST2",
        "value": "뒷마당 밖의 물건들로 석상 장식하기"
    },
    {
        "key": "GOAL_CABBAGE",
        "value": "양배추 피크닉"
    },
    {
        "key": "GOAL_CATCH",
        "value": "담장 위로 던져지는 물건 잡기"
    },
    {
        "key": "GOAL_FLOWERS",
        "value": "꽃 다섯 송이 수집"
    },
    {
        "key": "GOAL_FLOWERSEXTRA",
        "value": "우물 옆 바구니에 보관: ~~튤립~~, ~~백합~~, ~~장미~~, ~~데이지~~, ~~국화~~"
    },
    {
        "key": "GOAL_FOOTBALL",
        "value": "골 넣기"
    },
    {
        "key": "GOAL_LOCKOUT",
        "value": "정원사가 정원에 들어가지 못하게 잠그기"
    },
    {
        "key": "GOAL_MAIL",
        "value": "편지 보내기"
    },
    {
        "key": "GOAL_MYSTERY",
        "value": "<cspace=0.25>?????????????</cspace>"
    },
    {
        "key": "GOAL_OLDMANHAT",
        "value": "늙은남자의 모직 모자 훔치기"
    },
    {
        "key": "GOAL_PERFORMRIBBON",
        "value": "리본 장식을 달고 술집에서 공연하기"
    },
    {
        "key": "GOAL_PUDDLE",
        "value": "소년을 물웅덩이로 보내기"
    },
    {
        "key": "GOAL_SCALES",
        "value": "상점 저울에 땡 소리 울리기"
    },
    {
        "key": "GOAL_SPEEDYBACKYARDS",
        "value": "교회 종이 울리기 전에 뒷마당 할일 목록 완료하기"
    },
    {
        "key": "GOAL_SPEEDYBACKYARDSEXTRA",
        "value": "~~꽃병 깨기~~, ~~석상 장식하기~~, ~~차 뱉어내게 만들기~~, ~~리본 입기~~, ~~신발 벗기기~~, ~~세탁하기~~, ~~장미 꺾기~~"
    },
    {
        "key": "GOAL_SPEEDYGARDEN",
        "value": "교회 종이 울리기 전에 정원 할일 목록 완료하기"
    },
    {
        "key": "GOAL_SPEEDYGARDENEXTRA",
        "value": "~~들어가기~~, ~~정원사 옷 적시기~~, ~~열쇠 훔치기~~, ~~밀집모자~~, ~~호수에서 갈퀴 긁기~~, ~~피크닉~~, ~~망치로 손 찧기~~"
    },
    {
        "key": "GOAL_SPEEDYPUB",
        "value": "교회 종이 울리기 전에 술집 할일 목록 완료하기"
    },
    {
        "key": "GOAL_SPEEDYPUBEXTRA",
        "value": "~~들어가기~~, ~~다트판 부수기~~, ~~장난감 보트 얻기~~, ~~늙은남자 엉덩방아~~, ~~꽃 얻기~~, ~~맥주잔 훔치기~~, ~~테이블 세팅~~, ~~양동이 씌우기~~"
    },
    {
        "key": "GOAL_SPEEDYSHOPS",
        "value": "교회 종이 울리기 전에 윗동네 할일 목록 완료하기"
    },
    {
        "key": "GOAL_SPEEDYSHOPSEXTRA",
        "value": "~~빗자루 망가뜨리기~~, ~~전화박스에 가두기~~, ~~안경 바꾸기~~, ~~물건 다시 사게 만들기~~, ~~TV에 나오기~~, ~~쇼핑하기~~, ~~창고에 가두기~~"
    },
    {
        "key": "GOAL_THROWNGOOSE",
        "value": "담장 위로 던져지기"
    },
    {
        "key": "GOAL_TOOLATE",
        "value": "할 일을 다시 시도하려면 리셋"
    },
    {
        "key": "GOAL_UMBRELLA",
        "value": "TV 대리점에서 우산 펴기"
    },
    {
        "key": "GOAL_WIMPGARAGE",
        "value": "소년을 창고에 가두기"
    },
    {
        "key": "TO_DO_ASWELL",
        "value": "할 일 (기타):"
    },
    {
        "key": "TO_DO_SPEEDY",
        "value": "할 일 (시간 제한):"
    },
    {
        "key": "UNUSED_FLOWERS",
        "value": "국화\n양귀비\n카네이션\n해바라기"
    },
    {
        "key": "GOAL_FINALE",
        "value": "…그리고 집까지 가져가기"
    },
    {
        "key": "GOAL_MODELVILLAGE",
        "value": "모형 마을에 들어가기"
    },
    {
        "key": "GOAL_STEALBELL",
        "value": "예쁘게 생긴 미니어처 골든 벨 훔치기"
    },
    {
        "key": "GOAL_GARDEN",
        "value": "정원에 들어가기"
    },
    {
        "key": "GOAL_HAMMERING",
        "value": "정원사가 손가락을 망치로 찧게 만들기"
    },
    {
        "key": "GOAL_HAT",
        "value": "정원사가 밀집모자를 쓰게 만들기"
    },
    {
        "key": "GOAL_KEYS",
        "value": "정원사의 열쇠 훔치기"
    },
    {
        "key": "GOAL_PICNIC",
        "value": "피크닉하기"
    },
    {
        "key": "GOAL_PICNICEXTRA",
        "value": "피크닉 담요에 가져올 물건: ~~샌드위치~~, ~~사과~~, ~~호박~~, ~~당근~~, ~~잼~~, ~~보온병~~, ~~라디오~~, ~~바구니~~"
    },
    {
        "key": "GOAL_RAKE",
        "value": "호수에서 갈퀴 긁기"
    },
    {
        "key": "GOAL_WET",
        "value": "정원사 옷 적시기"
    },
    {
        "key": "GOAL_BOAT",
        "value": "장난감 보트 얻기"
    },
    {
        "key": "GOAL_BUCKET",
        "value": "덩치의 머리에 양동이 씌우기"
    },
    {
        "key": "GOAL_FLOWER",
        "value": "꽃 받기"
    },
    {
        "key": "GOAL_INTOPUB",
        "value": "술집에 들어가기"
    },
    {
        "key": "GOAL_OLDMAN1",
        "value": "다트판 부수기"
    },
    {
        "key": "GOAL_OLDMAN2",
        "value": "늙은남자가 엉덩방아를 찧게 만들기"
    },
    {
        "key": "GOAL_PINTGLASS",
        "value": "빈 맥주잔을 훔쳐서 도랑에 빠뜨리기"
    },
    {
        "key": "GOAL_SETTABLE",
        "value": "테이블 세팅하기"
    },
    {
        "key": "GOAL_SETTABLEEXTRA",
        "value": "~~나이프~~, ~~포크~~, ~~접시~~, ~~후추통~~, ~~양초~~"
    },
    {
        "key": "GOAL_BROOM",
        "value": "빗자루 망가뜨리기"
    },
    {
        "key": "GOAL_BUYBACK",
        "value": "아무나 자신의 물건을 다시 사게 만들기"
    },
    {
        "key": "GOAL_GARAGE",
        "value": "상점주인을 창고에 가두기"
    },
    {
        "key": "GOAL_GETINSHOP",
        "value": "TV에 나오기"
    },
    {
        "key": "GOAL_PHONEBOOTH",
        "value": "소년을 전화박스에 가두기"
    },
    {
        "key": "GOAL_SHOPPING",
        "value": "쇼핑하기"
    },
    {
        "key": "GOAL_SHOPPINGEXTRA",
        "value": "바구니에 담을 물건: ~~칫솔~~, ~~휴지~~, ~~머리빗~~, ~~깡통 음식~~, ~~세정제~~, ~~과일과 채소~~"
    },
    {
        "key": "GOAL_WALKIETALKIE",
        "value": "무전기 한 쌍 훔치기"
    },
    {
        "key": "GOAL_WRONGGLASSES",
        "value": "소년의 안경 바꿔치기"
    },
    {
        "key": "BACK",
        "value": "뒤로"
    },
    {
        "key": "BY_HOUSE_HOUSE",
        "value": "by House House"
    },
    {
        "key": "GAME_TITLE",
        "value": "제목없음\r\n거위 게임"
    },
    {
        "key": "LOADING",
        "value": "• 로딩 중 •"
    },
    {
        "key": "PRESS_TO_HONK",
        "value": "• 꽥꽥 소리를 내려면 <honkButton> 누르기 •"
    },
    {
        "key": "TITLE_AREYOUSURE",
        "value": "종료할까요?"
    },
    {
        "key": "TITLE_BEGIN",
        "value": "시작"
    },
    {
        "key": "TITLE_CREDITS",
        "value": "크레딧"
    },
    {
        "key": "TITLE_NO",
        "value": "아니요"
    },
    {
        "key": "TITLE_OPTIONS",
        "value": "옵션"
    },
    {
        "key": "TITLE_QUIT",
        "value": "종료"
    },
    {
        "key": "TITLE_SUBTITLE",
        "value": "</font>by House House"
    },
    {
        "key": "TITLE_TITLE",
        "value": "Untitled\nGoose Game"
    },
    {
        "key": "TITLE_YES",
        "value": "예"
    },
    {
        "key": "NO",
        "value": "아니요"
    },
    {
        "key": "OPTIONS",
        "value": "옵션"
    },
    {
        "key": "PAUSED",
        "value": "일시중지됨"
    },
    {
        "key": "QUIT",
        "value": "종료"
    },
    {
        "key": "QUIT_SUBTITLE",
        "value": "종료할까요?\r\n진행 상태가\r\n저장되었습니다."
    },
    {
        "key": "QUIT_TITLE",
        "value": "대기"
    },
    {
        "key": "RESET",
        "value": "리셋"
    },
    {
        "key": "RESET_SUBTITLE",
        "value": "어질러진 것들이 다시\r\n말끔하게 치워지더라도\r\n진행 상태는 저장되었습니다."
    },
    {
        "key": "RESET_TITLE",
        "value": "리셋?"
    },
    {
        "key": "RESUME",
        "value": "재개"
    },
    {
        "key": "YES",
        "value": "예"
    },
    {
        "key": "REBIND_CLEAR",
        "value": "<size=100%>취소 - <tertiaryButton></size>"
    },
    {
        "key": "REBIND_CONTROLLER_MISSING_2",
        "value": "!!!"
    },
    {
        "key": "REBIND_DOWN",
        "value": "아래"
    },
    {
        "key": "REBIND_DPAD",
        "value": "방향 패드"
    },
    {
        "key": "REBIND_FACE_BUTTONS",
        "value": "!!!"
    },
    {
        "key": "REBIND_INPUT_MISSING_2",
        "value": "!!!"
    },
    {
        "key": "REBIND_KEYBOARD_TITLE",
        "value": "~~~ 키보드 및 마우스 구성 ~~~"
    },
    {
        "key": "REBIND_LEFT",
        "value": "왼쪽"
    },
    {
        "key": "REBIND_LEFT_STICK",
        "value": "L 스틱"
    },
    {
        "key": "REBIND_MISSING_BINDING",
        "value": "!! 경고 !!\r\n입력 누락"
    },
    {
        "key": "REBIND_MISSING_CONTROLLER",
        "value": "!! 경고 !!\r\n컨트롤러를 찾을 수 없음"
    },
    {
        "key": "REBIND_MOUSE_MOVE",
        "value": "마우스 이동"
    },
    {
        "key": "REBIND_MOVE_STICK",
        "value": "이동"
    },
    {
        "key": "REBIND_PROMPT",
        "value": "[버튼 선택]"
    },
    {
        "key": "REBIND_RESET",
        "value": "[기본값 리셋]"
    },
    {
        "key": "REBIND_RIGHT",
        "value": "오른쪽"
    },
    {
        "key": "REBIND_RIGHT_STICK",
        "value": "R 스틱"
    },
    {
        "key": "REBIND_SELECT",
        "value": "<size=100%>선택 - <confirmButton></size>"
    },
    {
        "key": "REBIND_TITLE",
        "value": "~~~ 컨트롤러 구성 ~~~"
    },
    {
        "key": "REBIND_UNMAPPED",
        "value": "???"
    },
    {
        "key": "REBIND_UP",
        "value": "위로"
    },
    {
        "key": "SAVE_DONTERASE",
        "value": "지우기\r\n안 함"
    },
    {
        "key": "SAVE_EMPTY",
        "value": "비어 있음"
    },
    {
        "key": "SAVE_ERASECONFIRM",
        "value": "계속할까요?"
    },
    {
        "key": "SAVE_ERASECONFIRMNO",
        "value": "아니요"
    },
    {
        "key": "SAVE_ERASECONFIRMYES",
        "value": "예"
    },
    {
        "key": "SAVE_ERASESELECT",
        "value": "지우기?"
    },
    {
        "key": "SAVE_ERASETEXT",
        "value": "세이브\r\n지우기"
    },
    {
        "key": "SAVE_MONTH1",
        "value": "1월"
    },
    {
        "key": "SAVE_MONTH10",
        "value": "10월"
    },
    {
        "key": "SAVE_MONTH11",
        "value": "11월"
    },
    {
        "key": "SAVE_MONTH12",
        "value": "12월"
    },
    {
        "key": "SAVE_MONTH2",
        "value": "2월"
    },
    {
        "key": "SAVE_MONTH3",
        "value": "3월"
    },
    {
        "key": "SAVE_MONTH4",
        "value": "4월"
    },
    {
        "key": "SAVE_MONTH5",
        "value": "5월"
    },
    {
        "key": "SAVE_MONTH6",
        "value": "6월"
    },
    {
        "key": "SAVE_MONTH7",
        "value": "7월"
    },
    {
        "key": "SAVE_MONTH8",
        "value": "8월"
    },
    {
        "key": "SAVE_MONTH9",
        "value": "9월"
    },
    {
        "key": "SAVE_SAVE1",
        "value": "세이브 01"
    },
    {
        "key": "SAVE_SAVE2",
        "value": "세이브 02"
    },
    {
        "key": "SAVE_SAVE3",
        "value": "세이브 03"
    },
    {
        "key": "LANGUAGE_BRAZILIAN_PORTUGUESE",
        "value": "포르투갈어(브라질)"
    },
    {
        "key": "LANGUAGE_ENGLISH",
        "value": "영어"
    },
    {
        "key": "LANGUAGE_FRENCH",
        "value": "프랑스어"
    },
    {
        "key": "LANGUAGE_GERMAN",
        "value": "독일어"
    },
    {
        "key": "LANGUAGE_ITALIAN",
        "value": "이탈리아어"
    },
    {
        "key": "LANGUAGE_JAPANESE",
        "value": "일본어"
    },
    {
        "key": "LANGUAGE_KOREAN",
        "value": "한국어"
    },
    {
        "key": "LANGUAGE_POLISH",
        "value": "폴란드어"
    },
    {
        "key": "LANGUAGE_RUSSIAN",
        "value": "러시아어"
    },
    {
        "key": "LANGUAGE_SIMPLIFIED_CHINESE",
        "value": "중국어"
    },
    {
        "key": "LANGUAGE_SPANISH",
        "value": "스페인어"
    },
    {
        "key": "SETTING_BEND_TOGGLE",
        "value": "구부리기"
    },
    {
        "key": "SETTING_CURSIVE",
        "value": "필기체"
    },
    {
        "key": "SETTING_FULLSCREEN",
        "value": "전체 화면"
    },
    {
        "key": "SETTING_LANGUAGE",
        "value": "언어"
    },
    {
        "key": "SETTING_LEGIBLETEXT",
        "value": "할 일 목록 텍스트"
    },
    {
        "key": "SETTING_MUSIC",
        "value": "음악 볼륨"
    },
    {
        "key": "SETTING_OFF",
        "value": "-- / OFF"
    },
    {
        "key": "SETTING_ON",
        "value": "ON / ---"
    },
    {
        "key": "SETTING_QUALITY",
        "value": "그래픽 품질"
    },
    {
        "key": "SETTING_QUALITY1",
        "value": "최저"
    },
    {
        "key": "SETTING_QUALITY2",
        "value": "중간"
    },
    {
        "key": "SETTING_QUALITY3",
        "value": "최고"
    },
    {
        "key": "SETTING_RESOLUTION",
        "value": "해상도"
    },
    {
        "key": "SETTING_RUN_TOGGLE",
        "value": "달리기"
    },
    {
        "key": "SETTING_SANSSERIF",
        "value": "일반"
    },
    {
        "key": "SETTING_SFX",
        "value": "sfx 볼륨"
    },
    {
        "key": "SETTING_SPEEDRUN",
        "value": "스피드런 타이머"
    },
    {
        "key": "SETTING_VIBRATION_TOGGLE",
        "value": "진동"
    },
    {
        "key": "SETTING_WINGS_TOGGLE",
        "value": "날개"
    },
    {
        "key": "SETTING_ZOOM_TOGGLE",
        "value": "확대"
    },
    {
        "key": "SETTINGS_ADJUSTCONTROLLER",
        "value": "컨트롤러 조정 ->"
    },
    {
        "key": "SETTINGS_ADJUSTCONTROLS",
        "value": "컨트롤 조정 ->"
    },
    {
        "key": "SETTINGS_ADJUSTKEYBOARD",
        "value": "키보드 및 마우스 조정 ->"
    },
    {
        "key": "SETTINGS_HONK",
        "value": "꽥꽥 볼륨"
    },
    {
        "key": "SETTINGS_TITLE",
        "value": "~~~ 옵션 ~~~"
    },
    {
        "key": "SETTINGS_VIEW_CONTROLS",
        "value": "컨트롤 보기"
    },
    {
        "key": "SETTING_HOLD",
        "value": "누른 상태"
    },
    {
        "key": "SETTING_TOGGLE",
        "value": "토글"
    },
    {
        "key": "TEACHING_100REWARD",
        "value": "축하합니다. 집에 가면 보상을 받을 수 있습니다."
    },
    {
        "key": "TEACHING_BEND",
        "value": "자세를 낮추려면 <crouchButton> 누르기"
    },
    {
        "key": "TEACHING_CONTROLS",
        "value": "컨트롤을 보려면 <goalsButton> 누르기"
    },
    {
        "key": "TEACHING_CORNERING",
        "value": "<runButton> 버튼을 놓으면 빠르게 방향 전환"
    },
    {
        "key": "TEACHING_GOALS",
        "value": "할 일 목록과 컨트롤을\n보려면 <goalsButton> 누르기"
    },
    {
        "key": "TEACHING_MOVEMOUSE",
        "value": "<mouseMoveButton> 버튼을 한 번 누르면 이동,\n두 번 누르면 달리기"
    },
    {
        "key": "TEACHING_MOVESTICK",
        "value": "<runButton> 버튼을 눌러서 달리기"
    },
    {
        "key": "TEACHING_PICKUPGROUND",
        "value": "땅에 있는 물건을 줍기 위해 아래로 숙이려면\r\n<crouchButton> 버튼을 누른 상태로 <useButton> 누르기"
    },
    {
        "key": "TEACHING_USE",
        "value": "부리를 사용하려면 <useButton> 누르기"
    },
    {
        "key": "TEACHING_WINGS",
        "value": "날개를 퍼득이려면 <flapButton> 누르기"
    },
    {
        "key": "TEACHING_ZOOM",
        "value": "확대하려면 <zoomInButton>, 축소하려면 <zoomOutButton> 누르기"
    },
    {
        "key": "SETTING_SCREENMODE",
        "value": "화면 모드"
    },
    {
        "key": "SETTING_SCREEN1",
        "value": "전체 화면"
    },
    {
        "key": "SETTING_SCREEN2",
        "value": "테두리 없음"
    },
    {
        "key": "SETTING_SCREEN3",
        "value": "창 모드"
    },
    {
        "key": "TITLE_SPLASH1",
        "value": "제공"
    },
    {
        "key": "CREDITS_BY2",
        "value": "-"
    },
    {
        "key": "CREDITS_BY3",
        "value": " "
    },
    {
        "key": "TO_DO_FINALLY",
        "value": "할 일(최종):"
    },
    {
        "key": "TEACHING_CORNERINGKEYBOARD",
        "value": "달리지 않을 때는 방향을 빠르게 전환할 수 있습니다."
    },
    {
        "key": "CREDITS_PANICSTAFF",
        "value": "참여자"
    },
    {
        "key": "EXHIBITION_WAIT",
        "value": "대기"
    },
    {
        "key": "EXHIBITION_CONFIRM",
        "value": "Are you sure\nyou want to reset?"
    },
    {
        "key": "",
        "value": "!!!"
    },
    {
        "key": "",
        "value": "!!!"
    },
    {
        "key": "",
        "value": "!!!"
    },
    {
        "key": "",
        "value": "!!!"
    },
    {
        "key": "",
        "value": "!!!"
    },
    {
        "key": "",
        "value": "!!!"
    },
    {
        "key": "",
        "value": "!!!"
    },
    {
        "key": "",
        "value": "!!!"
    },
    {
        "key": "",
        "value": "!!!"
    },
    {
        "key": "",
        "value": "!!!"
    },
    {
        "key": "",
        "value": "!!!"
    },
    {
        "key": "",
        "value": "!!!"
    },
    {
        "key": "",
        "value": "!!!"
    },
    {
        "key": "",
        "value": "!!!"
    },
    {
        "key": "",
        "value": "!!!"
    },
    {
        "key": "",
        "value": "!!!"
    },
    {
        "key": "",
        "value": "!!!"
    },
    {
        "key": "",
        "value": "!!!"
    },
    {
        "key": "",
        "value": "!!!"
    },
    {
        "key": "",
        "value": "!!!"
    },
    {
        "key": "",
        "value": "!!!"
    },
    {
        "key": "",
        "value": "!!!"
    },
    {
        "key": "",
        "value": "!!!"
    },
    {
        "key": "",
        "value": "!!!"
    },
    {
        "key": "",
        "value": "!!!"
    },
    {
        "key": "",
        "value": "!!!"
    },
    {
        "key": "",
        "value": "!!!"
    },
    {
        "key": "",
        "value": "!!!"
    },
    {
        "key": "",
        "value": "!!!"
    },
    {
        "key": "",
        "value": "!!!"
    },
    {
        "key": "",
        "value": "!!!"
    },
    {
        "key": "",
        "value": "!!!"
    },
    {
        "key": "",
        "value": "!!!"
    },
    {
        "key": "",
        "value": "!!!"
    },
    {
        "key": "",
        "value": "!!!"
    },
    {
        "key": "",
        "value": "!!!"
    },
    {
        "key": "",
        "value": "!!!"
    },
    {
        "key": "",
        "value": "!!!"
    },
    {
        "key": "",
        "value": "!!!"
    },
    {
        "key": "",
        "value": "!!!"
    },
    {
        "key": "",
        "value": "!!!"
    },
    {
        "key": "",
        "value": "!!!"
    },
    {
        "key": "",
        "value": "!!!"
    },
    {
        "key": "",
        "value": "!!!"
    },
    {
        "key": "",
        "value": "!!!"
    },
    {
        "key": "",
        "value": "!!!"
    },
    {
        "key": "",
        "value": "!!!"
    },
    {
        "key": "",
        "value": "!!!"
    },
    {
        "key": "",
        "value": "!!!"
    },
    {
        "key": "",
        "value": "!!!"
    },
    {
        "key": "",
        "value": "!!!"
    },
    {
        "key": "",
        "value": "!!!"
    },
    {
        "key": "",
        "value": "!!!"
    },
    {
        "key": "",
        "value": "!!!"
    },
    {
        "key": "",
        "value": "!!!"
    },
    {
        "key": "",
        "value": "!!!"
    },
    {
        "key": "",
        "value": "!!!"
    },
    {
        "key": "",
        "value": "!!!"
    },
    {
        "key": "",
        "value": "!!!"
    },
    {
        "key": "",
        "value": "!!!"
    },
    {
        "key": "",
        "value": "!!!"
    },
    {
        "key": "",
        "value": "!!!"
    },
    {
        "key": "",
        "value": "!!!"
    },
    {
        "key": "",
        "value": "!!!"
    },
    {
        "key": "",
        "value": "!!!"
    },
    {
        "key": "",
        "value": "!!!"
    },
    {
        "key": "",
        "value": "!!!"
    },
    {
        "key": "",
        "value": "#REF!"
    },
    {
        "key": "",
        "value": "#REF!"
    },
    {
        "key": "",
        "value": "#REF!"
    },
    {
        "key": "",
        "value": "#REF!"
    },
    {
        "key": "",
        "value": "#REF!"
    },
    {
        "key": "",
        "value": "#REF!"
    },
    {
        "key": "",
        "value": "#REF!"
    },
    {
        "key": "",
        "value": "#REF!"
    },
    {
        "key": "",
        "value": "#REF!"
    },
    {
        "key": "",
        "value": "#REF!"
    },
    {
        "key": "",
        "value": "#REF!"
    },
    {
        "key": "",
        "value": "#REF!"
    },
    {
        "key": "",
        "value": "#REF!"
    },
    {
        "key": "",
        "value": "#REF!"
    },
    {
        "key": "",
        "value": "#REF!"
    },
    {
        "key": "",
        "value": "#REF!"
    },
    {
        "key": "",
        "value": "#REF!"
    },
    {
        "key": "",
        "value": "#REF!"
    },
    {
        "key": "",
        "value": "#REF!"
    },
    {
        "key": "",
        "value": "#REF!"
    },
    {
        "key": "",
        "value": "#REF!"
    },
    {
        "key": "",
        "value": "#REF!"
    },
    {
        "key": "",
        "value": "#REF!"
    },
    {
        "key": "",
        "value": "#REF!"
    },
    {
        "key": "",
        "value": "#REF!"
    },
    {
        "key": "",
        "value": "#REF!"
    },
    {
        "key": "",
        "value": "#REF!"
    },
    {
        "key": "",
        "value": "#REF!"
    },
    {
        "key": "",
        "value": "#REF!"
    },
    {
        "key": "",
        "value": "#REF!"
    },
    {
        "key": "",
        "value": "#REF!"
    },
    {
        "key": "",
        "value": "#REF!"
    },
    {
        "key": "",
        "value": "#REF!"
    },
    {
        "key": "",
        "value": "#REF!"
    },
    {
        "key": "",
        "value": "#REF!"
    },
    {
        "key": "",
        "value": "#REF!"
    },
    {
        "key": "",
        "value": "#REF!"
    },
    {
        "key": "",
        "value": "#REF!"
    },
    {
        "key": "",
        "value": "#REF!"
    },
    {
        "key": "",
        "value": "#REF!"
    },
    {
        "key": "",
        "value": "#REF!"
    },
    {
        "key": "",
        "value": "#REF!"
    },
    {
        "key": "",
        "value": "#REF!"
    },
    {
        "key": "",
        "value": "#REF!"
    },
    {
        "key": "",
        "value": "#REF!"
    },
    {
        "key": "",
        "value": "#REF!"
    },
    {
        "key": "",
        "value": "#REF!"
    },
    {
        "key": "",
        "value": "#REF!"
    },
    {
        "key": "",
        "value": "#REF!"
    },
    {
        "key": "",
        "value": "#REF!"
    },
    {
        "key": "",
        "value": "#REF!"
    },
    {
        "key": "",
        "value": "#REF!"
    },
    {
        "key": "",
        "value": "#REF!"
    },
    {
        "key": "",
        "value": "#REF!"
    },
    {
        "key": "",
        "value": "#REF!"
    },
    {
        "key": "",
        "value": "#REF!"
    },
    {
        "key": "",
        "value": "#REF!"
    },
    {
        "key": "",
        "value": "#REF!"
    },
    {
        "key": "",
        "value": "#REF!"
    },
    {
        "key": "",
        "value": "#REF!"
    },
    {
        "key": "",
        "value": "#REF!"
    },
    {
        "key": "",
        "value": "#REF!"
    },
    {
        "key": "",
        "value": "#REF!"
    },
    {
        "key": "",
        "value": "#REF!"
    },
    {
        "key": "",
        "value": "#REF!"
    },
    {
        "key": "",
        "value": "#REF!"
    },
    {
        "key": "",
        "value": "#REF!"
    },
    {
        "key": "",
        "value": "#REF!"
    },
    {
        "key": "",
        "value": "#REF!"
    },
    {
        "key": "",
        "value": "#REF!"
    },
    {
        "key": "",
        "value": "#REF!"
    },
    {
        "key": "",
        "value": "#REF!"
    },
    {
        "key": "",
        "value": "#REF!"
    },
    {
        "key": "",
        "value": "#REF!"
    },
    {
        "key": "",
        "value": "#REF!"
    },
    {
        "key": "",
        "value": "#REF!"
    },
    {
        "key": "",
        "value": "#REF!"
    }
]
}