{"items":[
    {
        "key": "ACTION_BEND",
        "value": "присесть"
    },
    {
        "key": "ACTION_FLAP",
        "value": "хлопнуть"
    },
    {
        "key": "ACTION_GOALS",
        "value": "список дел"
    },
    {
        "key": "ACTION_GRAB",
        "value": "схватить"
    },
    {
        "key": "ACTION_HONK",
        "value": "гоготать"
    },
    {
        "key": "ACTION_MOVE",
        "value": "движение"
    },
    {
        "key": "ACTION_PAUSE",
        "value": "пауза"
    },
    {
        "key": "ACTION_RUN",
        "value": "бежать"
    },
    {
        "key": "ACTION_ZOOM",
        "value": "!!!"
    },
    {
        "key": "ACTION_ZOOMIN",
        "value": "увеличить"
    },
    {
        "key": "ACTION_ZOOMOUT",
        "value": "уменьшить"
    },
    {
        "key": "CONTROLS_MULTIPLE",
        "value": "несколько"
    },
    {
        "key": "CONTROLS_TITLE",
        "value": "~~~ УПРАВЛЕНИЕ ~~~"
    },
    {
        "key": "CREDITS_ACKNOWLEDGEMENT",
        "value": "Эта игра создана на землях народа Вурунджери, принадлежащего к нации Кулина. Мы выражаем наше уважение к их Старейшинам, прошлому и настоящему. Независимость навсегда."
    },
    {
        "key": "CREDITS_AGOOSE",
        "value": "Гусь"
    },
    {
        "key": "CREDITS_APPEARINGAS",
        "value": "в роли:"
    },
    {
        "key": "CREDITS_ART",
        "value": "дополнительные изображения и анимация:"
    },
    {
        "key": "CREDITS_AS",
        "value": "в роли"
    },
    {
        "key": "CREDITS_AUDIO",
        "value": "звуковое оформление"
    },
    {
        "key": "CREDITS_BY",
        "value": "создано"
    },
    {
        "key": "CREDITS_CHARACTERS",
        "value": "Садовник\r\nПродавщица\r\nСопляк\r\nВладелица магазина ТВ\r\nАккуратный сосед\r\nСоседка-неряха\r\nТрактирщица\r\nМуж трактирщицы\r\nКурьер\r\nПосетительница бара в желтом\r\nПосетительница бара в синем\r\nСтарикан"
    },
    {
        "key": "CREDITS_DEBUSSY",
        "value": "Dan Golding\r\n(из «Préludes» Debussy)"
    },
    {
        "key": "CREDITS_EXEC",
        "value": "исполнительный продюсер"
    },
    {
        "key": "CREDITS_FONTTITLECURSIVE",
        "value": "<font=Nickainley-Normal SDF><size=131%>Nickainley</font>"
    },
    {
        "key": "CREDITS_FONTS",
        "value": "использованные шрифты"
    },
    {
        "key": "CREDITS_FONTTITLEMONO",
        "value": "<font=\"courier-prime-italic SDF\"><voffset=-0.8em>Courier Prime Cyrillic</voffset></font>"
    },
    {
        "key": "CREDITS_FONTTITLESANS",
        "value": "Montserrat"
    },
    {
        "key": "CREDITS_INCOOPERATION",
        "value": "совместно с"
    },
    {
        "key": "CREDITS_INTRODUCING",
        "value": "представляют"
    },
    {
        "key": "CREDITS_JAPAN",
        "value": "panic japan"
    },
    {
        "key": "CREDITS_MARKETING",
        "value": "маркетинг"
    },
    {
        "key": "CREDITS_MUSIC",
        "value": "музыка:"
    },
    {
        "key": "CREDITS_PLAYTEST",
        "value": "тестирование:"
    },
    {
        "key": "CREDITS_PORTING",
        "value": "поддержка игровых приставок"
    },
    {
        "key": "CREDITS_PRODUCTION",
        "value": "производство"
    },
    {
        "key": "CREDITS_PROGRAMMING",
        "value": "дополнительное программирование:"
    },
    {
        "key": "CREDITS_QA",
        "value": "контроль качества"
    },
    {
        "key": "CREDITS_THANKS",
        "value": "отдельная благодарность"
    },
    {
        "key": "CREDITS_THANKYOU",
        "value": "Большое спасибо,\nчто играете в нашу игру.\n\n© House House, 2019 г."
    },
    {
        "key": "CREDITS_THEGOOSE",
        "value": "Гусь"
    },
    {
        "key": "CREDITS_VIDEOGAME",
        "value": "видеоигра от"
    },
    {
        "key": "CREDITS_VOICEACTING",
        "value": "озвучивание:"
    },
    {
        "key": "CREDITS_WEB",
        "value": "веб"
    },
    {
        "key": "CREDITS_WITHASSISTANCE",
        "value": "с помощью"
    },
    {
        "key": "GOAL_BUYBACK2",
        "value": "заставить кого-то не с главной улицы выкупить свою вещь обратно"
    },
    {
        "key": "CREDITS_FONTMAKERCURSIVE",
        "value": "Fontfabric Type Foundry"
    },
    {
        "key": "CREDITS_FONTMAKERMONO",
        "value": "Dmitry Novikov"
    },
    {
        "key": "CREDITS_FONTMAKERSANS",
        "value": "Julieta Ulanovsky"
    },
    {
        "key": "CREDITS_FMODTITLE",
        "value": "поддержка аудио"
    },
    {
        "key": "CREDITS_FMODNAME",
        "value": "FMOD Studio\r\nот Firelight Technologies Pty Ltd."
    },
    {
        "key": "DEMO_FIVE_MINUTES",
        "value": "осталось пять минут"
    },
    {
        "key": "DEMO_SECONDS_LEFT",
        "value": "осталось <seconds> с"
    },
    {
        "key": "DEMO_THANK_YOU",
        "value": "Большое спасибо, что играете в нашу игру!\r\nБудет выпущено в 2019 г.\r\n\r\nДля получения обновлений подпишитесь на нашу рассылку по адресу\r\n<font=\"TransportNew-Medium SDF\"><size=+1.5><line-height=100%>goose.game</size></font></line-height>"
    },
    {
        "key": "CHECKLIST",
        "value": "!!!"
    },
    {
        "key": "CONTROLS",
        "value": "!!!"
    },
    {
        "key": "NEWTODO",
        "value": "новый пункт\r\nв списке дел !!"
    },
    {
        "key": "NEWTODO_EXTRAPAGES",
        "value": "новые страницы\r\nв списке дел !!"
    },
    {
        "key": "NEWTODO_PAGE",
        "value": "новая страница\r\nв списке дел !!"
    },
    {
        "key": "TO_DO",
        "value": "дело:"
    },
    {
        "key": "GOAL_BAREFOOT",
        "value": "заставить человека ходить босиком"
    },
    {
        "key": "GOAL_BELL",
        "value": "заставить человека пролить чай"
    },
    {
        "key": "GOAL_BREAKVASE",
        "value": "заставить кого-нибудь разбить красивую вазу"
    },
    {
        "key": "GOAL_DRESSSTATUE",
        "value": "помочь женщине нарядить бюст"
    },
    {
        "key": "GOAL_PRUNE",
        "value": "заставить кого-нибудь срезать уникальную розу"
    },
    {
        "key": "GOAL_RIBBON",
        "value": "нарядиться в ленточку"
    },
    {
        "key": "GOAL_STARTFIGHT",
        "value": "учинить драку между соседями"
    },
    {
        "key": "GOAL_WASHING",
        "value": "устроить стирку"
    },
    {
        "key": "GOAL_WASHINGEXTRA",
        "value": "с: ~~лифчиком~~, ~~носками~~, ~~тапочком~~, ~~куском мыла~~"
    },
    {
        "key": "GOAL_0MINUTES",
        "value": "осталось меньше минуты!"
    },
    {
        "key": "GOAL_100",
        "value": "вычеркнуть все пункты в списке дел"
    },
    {
        "key": "GOAL_10MINUTES",
        "value": "осталось десять минут"
    },
    {
        "key": "GOAL_1MINUTES",
        "value": "осталась одна минута"
    },
    {
        "key": "GOAL_2MINUTES",
        "value": "осталось две минуты"
    },
    {
        "key": "GOAL_3MINUTES",
        "value": "осталось три минуты"
    },
    {
        "key": "GOAL_4MINUTES",
        "value": "осталось четыре минуты"
    },
    {
        "key": "GOAL_5MINUTES",
        "value": "осталось пять минут"
    },
    {
        "key": "GOAL_6MINUTES",
        "value": "осталось шесть минут"
    },
    {
        "key": "GOAL_7MINUTES",
        "value": "осталось семь минут"
    },
    {
        "key": "GOAL_8MINUTES",
        "value": "осталось восемь минут"
    },
    {
        "key": "GOAL_9MINUTES",
        "value": "осталось девять минут"
    },
    {
        "key": "GOAL_BOATBRIDGE",
        "value": "запустить лодочку под мостом"
    },
    {
        "key": "GOAL_BUST2",
        "value": "нарядить бюст в вещи, взятые за пределами огородов"
    },
    {
        "key": "GOAL_CABBAGE",
        "value": "капустный пикник"
    },
    {
        "key": "GOAL_CATCH",
        "value": "поймать предмет, брошенный через забор"
    },
    {
        "key": "GOAL_FLOWERS",
        "value": "собрать пять цветков"
    },
    {
        "key": "GOAL_FLOWERSEXTRA",
        "value": "в корзине у колодца: ~~тюльпан~~, ~~лилия~~, ~~роза~~, ~~маргаритка~~, ~~хризантема~~"
    },
    {
        "key": "GOAL_FOOTBALL",
        "value": "забить гол"
    },
    {
        "key": "GOAL_LOCKOUT",
        "value": "заблокировать садовника за пределами сада"
    },
    {
        "key": "GOAL_MAIL",
        "value": "отправить письмо"
    },
    {
        "key": "GOAL_MYSTERY",
        "value": "<cspace=0.25>?????????????</cspace>"
    },
    {
        "key": "GOAL_OLDMANHAT",
        "value": "украсть шерстяную шляпу старикана"
    },
    {
        "key": "GOAL_PERFORMRIBBON",
        "value": "выступить в пабе в ленточке"
    },
    {
        "key": "GOAL_PUDDLE",
        "value": "толкнуть сопляка в лужу"
    },
    {
        "key": "GOAL_SCALES",
        "value": "звякнуть весами в магазине"
    },
    {
        "key": "GOAL_SPEEDYBACKYARDS",
        "value": "завершите список дел в огородах до того, как зазвонят церковные колокола"
    },
    {
        "key": "GOAL_SPEEDYBACKYARDSEXTRA",
        "value": "~~разбить вазу~~, ~~одеть бюст~~, ~~пролить чай~~, ~~нарядиться в ленточку~~, ~~босой мужчина~~, ~~стирка~~, ~~срезать розу~~"
    },
    {
        "key": "GOAL_SPEEDYGARDEN",
        "value": "завершите список дел в саду до того, как звонят церковные колокола"
    },
    {
        "key": "GOAL_SPEEDYGARDENEXTRA",
        "value": "~~попасть внутрь~~, ~~намочить его~~, ~~украсть ключи~~, ~~шляпа от солнца~~, ~~грабли в озере~~, ~~пикник~~, ~~молоток~~"
    },
    {
        "key": "GOAL_SPEEDYPUB",
        "value": "завершите список дел в пабе до того, как зазвонят церковные колокола"
    },
    {
        "key": "GOAL_SPEEDYPUBEXTRA",
        "value": "~~попасть внутрь~~, ~~сломать дартс~~, ~~стащить лодочку~~, ~~задница старикана~~, ~~стащить цветок~~, ~~разбить кружку~~, ~~накрыть на стол~~, ~~бросить ведро~~"
    },
    {
        "key": "GOAL_SPEEDYSHOPS",
        "value": "завершите список дел на главной улице до того, как зазвонят церковные колокола"
    },
    {
        "key": "GOAL_SPEEDYSHOPSEXTRA",
        "value": "~~сломать метлу~~, ~~ловушка в телефонной будке~~, ~~неправильные очки~~, ~~выкупить их вещи~~, ~~попасть на ТВ~~, ~~сходить в магазин~~, ~~ловушка в гараже~~"
    },
    {
        "key": "GOAL_THROWNGOOSE",
        "value": "переброситься через забор"
    },
    {
        "key": "GOAL_TOOLATE",
        "value": "выполните сброс, чтобы попробовать"
    },
    {
        "key": "GOAL_UMBRELLA",
        "value": "открыть зонт в магазине ТВ"
    },
    {
        "key": "GOAL_WIMPGARAGE",
        "value": "запереть сопляка в гараже"
    },
    {
        "key": "TO_DO_ASWELL",
        "value": "список дел (дополнительно):"
    },
    {
        "key": "TO_DO_SPEEDY",
        "value": "список дел (сделать быстро !!):"
    },
    {
        "key": "UNUSED_FLOWERS",
        "value": "хризантема\nмак\nгвоздика\nподсолнух"
    },
    {
        "key": "GOAL_FINALE",
        "value": "… и вернуть его домой"
    },
    {
        "key": "GOAL_MODELVILLAGE",
        "value": "попасть в мини-деревню"
    },
    {
        "key": "GOAL_STEALBELL",
        "value": "украсть красивый миниатюрный золотой колокольчик"
    },
    {
        "key": "GOAL_GARDEN",
        "value": "попасть в сад"
    },
    {
        "key": "GOAL_HAMMERING",
        "value": "заставить садовника ударить себя молотком по пальцу"
    },
    {
        "key": "GOAL_HAT",
        "value": "заставить садовника надеть свою шляпу от солнца"
    },
    {
        "key": "GOAL_KEYS",
        "value": "украсть ключи садовника"
    },
    {
        "key": "GOAL_PICNIC",
        "value": "устроить пикник"
    },
    {
        "key": "GOAL_PICNICEXTRA",
        "value": "принести на пикник: ~~сэндвич~~, ~~яблоко~~, ~~тыкву~~, ~~морковь~~, ~~варенье~~, ~~термос~~, ~~радио~~, ~~корзину~~"
    },
    {
        "key": "GOAL_RAKE",
        "value": "грабли в озере"
    },
    {
        "key": "GOAL_WET",
        "value": "намочить садовника"
    },
    {
        "key": "GOAL_BOAT",
        "value": "стащить лодочку"
    },
    {
        "key": "GOAL_BUCKET",
        "value": "бросить ведро на голову здоровенного мужика"
    },
    {
        "key": "GOAL_FLOWER",
        "value": "получить в награду цветок"
    },
    {
        "key": "GOAL_INTOPUB",
        "value": "попасть в паб"
    },
    {
        "key": "GOAL_OLDMAN1",
        "value": "сломать дартс"
    },
    {
        "key": "GOAL_OLDMAN2",
        "value": "заставить старикана упасть на задницу"
    },
    {
        "key": "GOAL_PINTGLASS",
        "value": "украсть кружку и бросить в канал"
    },
    {
        "key": "GOAL_SETTABLE",
        "value": "накрыть на стол"
    },
    {
        "key": "GOAL_SETTABLEEXTRA",
        "value": "~~нож~~, ~~вилка~~, ~~тарелка~~, ~~перец~~, ~~свеча~~"
    },
    {
        "key": "GOAL_BROOM",
        "value": "сломать метлу"
    },
    {
        "key": "GOAL_BUYBACK",
        "value": "заставить кого-нибудь выкупить свои вещи"
    },
    {
        "key": "GOAL_GARAGE",
        "value": "запереть продавщицу в гараже"
    },
    {
        "key": "GOAL_GETINSHOP",
        "value": "попасть на ТВ"
    },
    {
        "key": "GOAL_PHONEBOOTH",
        "value": "запереть сопляка в телефонной будке"
    },
    {
        "key": "GOAL_SHOPPING",
        "value": "сходить в магазин"
    },
    {
        "key": "GOAL_SHOPPINGEXTRA",
        "value": "положить в корзину: ~~зубную щетку~~, ~~туалетную бумагу~~, ~~щетка расческу~~, ~~консервы~~, ~~очиститель~~, ~~фрукты и овощи~~"
    },
    {
        "key": "GOAL_WALKIETALKIE",
        "value": "украсть пару раций"
    },
    {
        "key": "GOAL_WRONGGLASSES",
        "value": "заставить сопляка надеть не те очки"
    },
    {
        "key": "BACK",
        "value": "назад"
    },
    {
        "key": "BY_HOUSE_HOUSE",
        "value": "от House House"
    },
    {
        "key": "GAME_TITLE",
        "value": "Игра в гуся\r\nбез названия"
    },
    {
        "key": "LOADING",
        "value": "• загрузка •"
    },
    {
        "key": "PRESS_TO_HONK",
        "value": "• нажмите <honkButton>, чтобы гоготать •"
    },
    {
        "key": "TITLE_AREYOUSURE",
        "value": "Действительно выйти?"
    },
    {
        "key": "TITLE_BEGIN",
        "value": "Начать"
    },
    {
        "key": "TITLE_CREDITS",
        "value": "Благодарности"
    },
    {
        "key": "TITLE_NO",
        "value": "Нет"
    },
    {
        "key": "TITLE_OPTIONS",
        "value": "Параметры"
    },
    {
        "key": "TITLE_QUIT",
        "value": "Выход"
    },
    {
        "key": "TITLE_SUBTITLE",
        "value": "от </font>House House"
    },
    {
        "key": "TITLE_TITLE",
        "value": "Untitled\nGoose Game"
    },
    {
        "key": "TITLE_YES",
        "value": "Да"
    },
    {
        "key": "NO",
        "value": "Нет"
    },
    {
        "key": "OPTIONS",
        "value": "<size=71%>Параметры</size>"
    },
    {
        "key": "PAUSED",
        "value": "Пауза"
    },
    {
        "key": "QUIT",
        "value": "Выход"
    },
    {
        "key": "QUIT_SUBTITLE",
        "value": "Действительно выйти? Прогресс в игре был сохранен."
    },
    {
        "key": "QUIT_TITLE",
        "value": "<size=80%>ПОДОЖДИТЕ</size>"
    },
    {
        "key": "RESET",
        "value": "Сброс"
    },
    {
        "key": "RESET_SUBTITLE",
        "value": "<size=82%>Любой беспорядок, который вы устроили, будет приведен в порядок, но ваш прогресс сохранен.</size>"
    },
    {
        "key": "RESET_TITLE",
        "value": "СБРОСИТЬ?"
    },
    {
        "key": "RESUME",
        "value": "<size=71%>Продолжить</size>"
    },
    {
        "key": "YES",
        "value": "Да"
    },
    {
        "key": "REBIND_CLEAR",
        "value": "<size=100%>очистить - <tertiaryButton></size>"
    },
    {
        "key": "REBIND_CONTROLLER_MISSING_2",
        "value": "!!!"
    },
    {
        "key": "REBIND_DOWN",
        "value": "вниз"
    },
    {
        "key": "REBIND_DPAD",
        "value": "крестовина"
    },
    {
        "key": "REBIND_FACE_BUTTONS",
        "value": "!!!"
    },
    {
        "key": "REBIND_INPUT_MISSING_2",
        "value": "!!!"
    },
    {
        "key": "REBIND_KEYBOARD_TITLE",
        "value": "~~~ НАСТРОЙКИ КЛАВИАТУРЫ И МЫШИ ~~~"
    },
    {
        "key": "REBIND_LEFT",
        "value": "влево"
    },
    {
        "key": "REBIND_LEFT_STICK",
        "value": "<size=90%>левый мини-джойстик</size>"
    },
    {
        "key": "REBIND_MISSING_BINDING",
        "value": "!! ПРЕДУПРЕЖДЕНИЕ !!\r\nКНОПКИ НЕ НАЗНАЧЕНЫ"
    },
    {
        "key": "REBIND_MISSING_CONTROLLER",
        "value": "!! ПРЕДУПРЕЖДЕНИЕ !!\r\nКОНТРОЛЛЕР НЕ НАЙДЕН"
    },
    {
        "key": "REBIND_MOUSE_MOVE",
        "value": "перемещение мыши"
    },
    {
        "key": "REBIND_MOVE_STICK",
        "value": "движение"
    },
    {
        "key": "REBIND_PROMPT",
        "value": "[какая кнопка?]"
    },
    {
        "key": "REBIND_RESET",
        "value": "[вернуть по умолчанию]"
    },
    {
        "key": "REBIND_RIGHT",
        "value": "вправо"
    },
    {
        "key": "REBIND_RIGHT_STICK",
        "value": "<size=90%>правый мини-джойстик</size>"
    },
    {
        "key": "REBIND_SELECT",
        "value": "<size=100%>выбор - <confirmButton></size>"
    },
    {
        "key": "REBIND_TITLE",
        "value": "~~~ НАСТРОЙКА КОНТРОЛЛЕРА ~~~"
    },
    {
        "key": "REBIND_UNMAPPED",
        "value": "???"
    },
    {
        "key": "REBIND_UP",
        "value": "вверх"
    },
    {
        "key": "SAVE_DONTERASE",
        "value": "Не\r\nстирать"
    },
    {
        "key": "SAVE_EMPTY",
        "value": "Пусто"
    },
    {
        "key": "SAVE_ERASECONFIRM",
        "value": "Уверены?"
    },
    {
        "key": "SAVE_ERASECONFIRMNO",
        "value": "Нет"
    },
    {
        "key": "SAVE_ERASECONFIRMYES",
        "value": "Да"
    },
    {
        "key": "SAVE_ERASESELECT",
        "value": "Стереть?"
    },
    {
        "key": "SAVE_ERASETEXT",
        "value": "Стереть\r\nсохранение"
    },
    {
        "key": "SAVE_MONTH1",
        "value": "янв"
    },
    {
        "key": "SAVE_MONTH10",
        "value": "окт"
    },
    {
        "key": "SAVE_MONTH11",
        "value": "ноя"
    },
    {
        "key": "SAVE_MONTH12",
        "value": "дек"
    },
    {
        "key": "SAVE_MONTH2",
        "value": "фев"
    },
    {
        "key": "SAVE_MONTH3",
        "value": "мар"
    },
    {
        "key": "SAVE_MONTH4",
        "value": "апр"
    },
    {
        "key": "SAVE_MONTH5",
        "value": "май"
    },
    {
        "key": "SAVE_MONTH6",
        "value": "июн"
    },
    {
        "key": "SAVE_MONTH7",
        "value": "июл"
    },
    {
        "key": "SAVE_MONTH8",
        "value": "авг"
    },
    {
        "key": "SAVE_MONTH9",
        "value": "сен"
    },
    {
        "key": "SAVE_SAVE1",
        "value": "Сохранение 01"
    },
    {
        "key": "SAVE_SAVE2",
        "value": "Сохранение 02"
    },
    {
        "key": "SAVE_SAVE3",
        "value": "Сохранение 03"
    },
    {
        "key": "LANGUAGE_BRAZILIAN_PORTUGUESE",
        "value": "БРАЗ. ПОРТ."
    },
    {
        "key": "LANGUAGE_ENGLISH",
        "value": "АНГЛИЙСКИЙ"
    },
    {
        "key": "LANGUAGE_FRENCH",
        "value": "ФРАНЦУЗСКИЙ"
    },
    {
        "key": "LANGUAGE_GERMAN",
        "value": "НЕМЕЦКИЙ"
    },
    {
        "key": "LANGUAGE_ITALIAN",
        "value": "ИТАЛЬЯНСКИЙ"
    },
    {
        "key": "LANGUAGE_JAPANESE",
        "value": "ЯПОНСКИЙ"
    },
    {
        "key": "LANGUAGE_KOREAN",
        "value": "КОРЕЙСКИЙ"
    },
    {
        "key": "LANGUAGE_POLISH",
        "value": "ПОЛЬСКИЙ"
    },
    {
        "key": "LANGUAGE_RUSSIAN",
        "value": "РУССКИЙ"
    },
    {
        "key": "LANGUAGE_SIMPLIFIED_CHINESE",
        "value": "КИТАЙСКИЙ"
    },
    {
        "key": "LANGUAGE_SPANISH",
        "value": "ИСПАНСКИЙ"
    },
    {
        "key": "SETTING_BEND_TOGGLE",
        "value": "согнуть"
    },
    {
        "key": "SETTING_CURSIVE",
        "value": "рукописный"
    },
    {
        "key": "SETTING_FULLSCREEN",
        "value": "полноэкранный"
    },
    {
        "key": "SETTING_LANGUAGE",
        "value": "язык"
    },
    {
        "key": "SETTING_LEGIBLETEXT",
        "value": "текст списка дел"
    },
    {
        "key": "SETTING_MUSIC",
        "value": "громкость музыки"
    },
    {
        "key": "SETTING_OFF",
        "value": "--- / ВЫКЛ"
    },
    {
        "key": "SETTING_ON",
        "value": "ВКЛ / ----"
    },
    {
        "key": "SETTING_QUALITY",
        "value": "качество графики"
    },
    {
        "key": "SETTING_QUALITY1",
        "value": "ВЫСОКАЯ СКОРОСТЬ"
    },
    {
        "key": "SETTING_QUALITY2",
        "value": "СРЕДНЕЕ"
    },
    {
        "key": "SETTING_QUALITY3",
        "value": "ЛУЧШЕЕ"
    },
    {
        "key": "SETTING_RESOLUTION",
        "value": "разрешение"
    },
    {
        "key": "SETTING_RUN_TOGGLE",
        "value": "бежать"
    },
    {
        "key": "SETTING_SANSSERIF",
        "value": "обычный текст"
    },
    {
        "key": "SETTING_SFX",
        "value": "громкость эффектов"
    },
    {
        "key": "SETTING_SPEEDRUN",
        "value": "игровой таймер"
    },
    {
        "key": "SETTING_VIBRATION_TOGGLE",
        "value": "вибрация"
    },
    {
        "key": "SETTING_WINGS_TOGGLE",
        "value": "крылья"
    },
    {
        "key": "SETTING_ZOOM_TOGGLE",
        "value": "увеличение"
    },
    {
        "key": "SETTINGS_ADJUSTCONTROLLER",
        "value": "настроить контроллер ->"
    },
    {
        "key": "SETTINGS_ADJUSTCONTROLS",
        "value": "настроить управление ->"
    },
    {
        "key": "SETTINGS_ADJUSTKEYBOARD",
        "value": "настроить клавиатуру и мышь ->"
    },
    {
        "key": "SETTINGS_HONK",
        "value": "громкость гогота"
    },
    {
        "key": "SETTINGS_TITLE",
        "value": "~~~ ПАРАМЕТРЫ ~~~"
    },
    {
        "key": "SETTINGS_VIEW_CONTROLS",
        "value": "просмотреть управление"
    },
    {
        "key": "SETTING_HOLD",
        "value": "УДЕРЖИВАТЬ"
    },
    {
        "key": "SETTING_TOGGLE",
        "value": "ПЕРЕКЛЮЧЕНИЕ"
    },
    {
        "key": "TEACHING_100REWARD",
        "value": "поздравляем - дома тебя ждет награда"
    },
    {
        "key": "TEACHING_BEND",
        "value": "держите <crouchButton>, чтобы наклониться вперед"
    },
    {
        "key": "TEACHING_CONTROLS",
        "value": "нажмите <goalsButton>, чтобы посмотреть управление"
    },
    {
        "key": "TEACHING_CORNERING",
        "value": "можно быстро повернуть, если отпустить <runButton>"
    },
    {
        "key": "TEACHING_GOALS",
        "value": "нажмите <goalsButton>, чтобы увидеть список\nдел и элементы управления"
    },
    {
        "key": "TEACHING_MOVEMOUSE",
        "value": "<mouseMoveButton>, чтобы двигаться,\r\nдважды щелкните, чтобы бежать"
    },
    {
        "key": "TEACHING_MOVESTICK",
        "value": "держите <runButton>, чтобы бежать"
    },
    {
        "key": "TEACHING_PICKUPGROUND",
        "value": "наклоняйтесь, чтобы поднять вещи с земли\r\n( держите <crouchButton>, затем нажмите <useButton> )"
    },
    {
        "key": "TEACHING_USE",
        "value": "нажмите <useButton>, чтобы использовать клюв"
    },
    {
        "key": "TEACHING_WINGS",
        "value": "держите <flapButton>, чтобы хлопать крыльями"
    },
    {
        "key": "TEACHING_ZOOM",
        "value": "держите <zoomInButton>, чтобы увеличить,\nи <zoomOutButton>, чтобы уменьшить"
    },
    {
        "key": "SETTING_SCREENMODE",
        "value": "режим экрана"
    },
    {
        "key": "SETTING_SCREEN1",
        "value": "полный экран"
    },
    {
        "key": "SETTING_SCREEN2",
        "value": "без рамок"
    },
    {
        "key": "SETTING_SCREEN3",
        "value": "в окне"
    },
    {
        "key": "TITLE_SPLASH1",
        "value": "представляет"
    },
    {
        "key": "CREDITS_BY2",
        "value": "создано"
    },
    {
        "key": "CREDITS_BY3",
        "value": "создано"
    },
    {
        "key": "TO_DO_FINALLY",
        "value": "список дел (в конце):"
    },
    {
        "key": "TEACHING_CORNERINGKEYBOARD",
        "value": "можно поворачивать быстрее, если перестать бежать"
    },
    {
        "key": "CREDITS_PANICSTAFF",
        "value": "сотрудники"
    },
    {
        "key": "EXHIBITION_WAIT",
        "value": "<size=80%>ПОДОЖДИТЕ</size>"
    },
    {
        "key": "EXHIBITION_CONFIRM",
        "value": "Are you sure\nyou want to reset?"
    },
    {
        "key": "",
        "value": "!!!"
    },
    {
        "key": "",
        "value": "!!!"
    },
    {
        "key": "",
        "value": "!!!"
    },
    {
        "key": "",
        "value": "!!!"
    },
    {
        "key": "",
        "value": "!!!"
    },
    {
        "key": "",
        "value": "!!!"
    },
    {
        "key": "",
        "value": "!!!"
    },
    {
        "key": "",
        "value": "!!!"
    },
    {
        "key": "",
        "value": "!!!"
    },
    {
        "key": "",
        "value": "!!!"
    },
    {
        "key": "",
        "value": "!!!"
    },
    {
        "key": "",
        "value": "!!!"
    },
    {
        "key": "",
        "value": "!!!"
    },
    {
        "key": "",
        "value": "!!!"
    },
    {
        "key": "",
        "value": "!!!"
    },
    {
        "key": "",
        "value": "!!!"
    },
    {
        "key": "",
        "value": "!!!"
    },
    {
        "key": "",
        "value": "!!!"
    },
    {
        "key": "",
        "value": "!!!"
    },
    {
        "key": "",
        "value": "!!!"
    },
    {
        "key": "",
        "value": "!!!"
    },
    {
        "key": "",
        "value": "!!!"
    },
    {
        "key": "",
        "value": "!!!"
    },
    {
        "key": "",
        "value": "!!!"
    },
    {
        "key": "",
        "value": "!!!"
    },
    {
        "key": "",
        "value": "!!!"
    },
    {
        "key": "",
        "value": "!!!"
    },
    {
        "key": "",
        "value": "!!!"
    },
    {
        "key": "",
        "value": "!!!"
    },
    {
        "key": "",
        "value": "!!!"
    },
    {
        "key": "",
        "value": "!!!"
    },
    {
        "key": "",
        "value": "!!!"
    },
    {
        "key": "",
        "value": "!!!"
    },
    {
        "key": "",
        "value": "!!!"
    },
    {
        "key": "",
        "value": "!!!"
    },
    {
        "key": "",
        "value": "!!!"
    },
    {
        "key": "",
        "value": "!!!"
    },
    {
        "key": "",
        "value": "!!!"
    },
    {
        "key": "",
        "value": "!!!"
    },
    {
        "key": "",
        "value": "!!!"
    },
    {
        "key": "",
        "value": "!!!"
    },
    {
        "key": "",
        "value": "!!!"
    },
    {
        "key": "",
        "value": "!!!"
    },
    {
        "key": "",
        "value": "!!!"
    },
    {
        "key": "",
        "value": "!!!"
    },
    {
        "key": "",
        "value": "!!!"
    },
    {
        "key": "",
        "value": "!!!"
    },
    {
        "key": "",
        "value": "!!!"
    },
    {
        "key": "",
        "value": "!!!"
    },
    {
        "key": "",
        "value": "!!!"
    },
    {
        "key": "",
        "value": "!!!"
    },
    {
        "key": "",
        "value": "!!!"
    },
    {
        "key": "",
        "value": "!!!"
    },
    {
        "key": "",
        "value": "!!!"
    },
    {
        "key": "",
        "value": "!!!"
    },
    {
        "key": "",
        "value": "!!!"
    },
    {
        "key": "",
        "value": "!!!"
    },
    {
        "key": "",
        "value": "!!!"
    },
    {
        "key": "",
        "value": "!!!"
    },
    {
        "key": "",
        "value": "!!!"
    },
    {
        "key": "",
        "value": "!!!"
    },
    {
        "key": "",
        "value": "!!!"
    },
    {
        "key": "",
        "value": "!!!"
    },
    {
        "key": "",
        "value": "!!!"
    },
    {
        "key": "",
        "value": "!!!"
    },
    {
        "key": "",
        "value": "!!!"
    },
    {
        "key": "",
        "value": "!!!"
    },
    {
        "key": "",
        "value": "!!!"
    },
    {
        "key": "",
        "value": "!!!"
    },
    {
        "key": "",
        "value": "!!!"
    },
    {
        "key": "",
        "value": "!!!"
    },
    {
        "key": "",
        "value": "!!!"
    },
    {
        "key": "",
        "value": "!!!"
    },
    {
        "key": "",
        "value": "!!!"
    },
    {
        "key": "",
        "value": "!!!"
    },
    {
        "key": "",
        "value": "!!!"
    },
    {
        "key": "",
        "value": "!!!"
    },
    {
        "key": "",
        "value": "!!!"
    },
    {
        "key": "",
        "value": "!!!"
    },
    {
        "key": "",
        "value": "!!!"
    },
    {
        "key": "",
        "value": "!!!"
    },
    {
        "key": "",
        "value": "!!!"
    },
    {
        "key": "",
        "value": "!!!"
    },
    {
        "key": "",
        "value": "!!!"
    },
    {
        "key": "",
        "value": "!!!"
    },
    {
        "key": "",
        "value": "!!!"
    },
    {
        "key": "",
        "value": "!!!"
    },
    {
        "key": "",
        "value": "!!!"
    },
    {
        "key": "",
        "value": "!!!"
    },
    {
        "key": "",
        "value": "!!!"
    },
    {
        "key": "",
        "value": "!!!"
    },
    {
        "key": "",
        "value": "!!!"
    },
    {
        "key": "",
        "value": "!!!"
    },
    {
        "key": "",
        "value": "!!!"
    },
    {
        "key": "",
        "value": "!!!"
    },
    {
        "key": "",
        "value": "!!!"
    },
    {
        "key": "",
        "value": "!!!"
    },
    {
        "key": "",
        "value": "!!!"
    },
    {
        "key": "",
        "value": "!!!"
    },
    {
        "key": "",
        "value": "!!!"
    },
    {
        "key": "",
        "value": "!!!"
    },
    {
        "key": "",
        "value": "!!!"
    },
    {
        "key": "",
        "value": "!!!"
    },
    {
        "key": "",
        "value": "!!!"
    },
    {
        "key": "",
        "value": "!!!"
    },
    {
        "key": "",
        "value": "!!!"
    },
    {
        "key": "",
        "value": "!!!"
    },
    {
        "key": "",
        "value": "!!!"
    },
    {
        "key": "",
        "value": "!!!"
    },
    {
        "key": "",
        "value": "!!!"
    }
]
}